<?xml version="1.0" encoding="UTF-8"?>
<svg width="32px" height="32px" viewBox="0 0 32 32" version="1.1" xmlns="http://www.w3.org/2000/svg" xmlns:xlink="http://www.w3.org/1999/xlink">
    <!-- Generator: Sketch 58 (84663) - https://sketch.com -->
    <title>Actions / Controls / open-panel--filled--top </title>
    <desc>Created with Sketch.</desc>
    <g id="Actions-/-Controls-/-open-panel--filled--top-" stroke="none" stroke-width="1" fill="none" fill-rule="evenodd">
        <path d="M28,4 L4,4 C2.8954305,4 2,4.8954305 2,6 L2,26 C2,27.1045695 2.8954305,28 4,28 L28,28 C29.1045695,28 30,27.1045695 30,26 L30,6 C30,4.8954305 29.1045695,4 28,4 Z M4,26 L4,14 L28,14 L28,26 L4,26 Z" id="Fill" fill="#0E141A"></path>
    </g>
</svg>