<?xml version="1.0" encoding="UTF-8"?>
<svg width="32px" height="32px" viewBox="0 0 32 32" version="1.1" xmlns="http://www.w3.org/2000/svg" xmlns:xlink="http://www.w3.org/1999/xlink">
    <!-- Generator: Sketch 58 (84663) - https://sketch.com -->
    <title>Actions / Controls / pause--filled </title>
    <desc>Created with Sketch.</desc>
    <g id="Actions-/-Controls-/-pause--filled-" stroke="none" stroke-width="1" fill="none" fill-rule="evenodd">
        <path d="M12,6 L10,6 C8.8954305,6 8,6.8954305 8,8 L8,24 C8,25.1045695 8.8954305,26 10,26 L12,26 C13.1045695,26 14,25.1045695 14,24 L14,8 C14,6.8954305 13.1045695,6 12,6 Z M22,6 L20,6 C18.8954305,6 18,6.8954305 18,8 L18,24 C18,25.1045695 18.8954305,26 20,26 L22,26 C23.1045695,26 24,25.1045695 24,24 L24,8 C24,6.8954305 23.1045695,6 22,6 Z" id="Fill" fill="#0E141A"></path>
    </g>
</svg>