<?xml version="1.0" encoding="UTF-8"?>
<svg width="32px" height="32px" viewBox="0 0 32 32" version="1.1" xmlns="http://www.w3.org/2000/svg" xmlns:xlink="http://www.w3.org/1999/xlink">
    <!-- Generator: Sketch 58 (84663) - https://sketch.com -->
    <title>Actions / Controls / play--filled--alt </title>
    <desc>Created with Sketch.</desc>
    <g id="Actions-/-Controls-/-play--filled--alt-" stroke="none" stroke-width="1" fill="none" fill-rule="evenodd">
        <path d="M7,28 C6.44771525,28 6,27.5522847 6,27 L6,5 C6,4.64260798 6.19104025,4.31246948 6.50069393,4.13402149 C6.81034761,3.9555735 7.19169603,3.95594654 7.501,4.135 L26.501,15.135 C26.8094022,15.3138989 26.9992281,15.6434657 26.9992281,16 C26.9992281,16.3565343 26.8094022,16.6861011 26.501,16.865 L7.501,27.865 C7.34882344,27.9533847 7.1759817,28 7,28 Z" id="Fill" fill="#0E141A"></path>
    </g>
</svg>