<?xml version="1.0" encoding="UTF-8"?>
<svg width="32px" height="32px" viewBox="0 0 32 32" version="1.1" xmlns="http://www.w3.org/2000/svg" xmlns:xlink="http://www.w3.org/1999/xlink">
    <!-- Generator: Sketch 58 (84663) - https://sketch.com -->
    <title>Actions / Controls / recording--filled </title>
    <desc>Created with Sketch.</desc>
    <g id="Actions-/-Controls-/-recording--filled-" stroke="none" stroke-width="1" fill="none" fill-rule="evenodd">
        <path d="M16,20 C18.209139,20 20,18.209139 20,16 C20,13.790861 18.209139,12 16,12 C13.790861,12 12,13.790861 12,16 C12,18.209139 13.790861,20 16,20 Z M16,2 C8.3,2 2,8.3 2,16 C2,23.7 8.3,30 16,30 C23.7,30 30,23.7 30,16 C30,8.3 23.7,2 16,2 Z M16,22 C12.7,22 10,19.3 10,16 C10,12.7 12.7,10 16,10 C19.3,10 22,12.7 22,16 C22,19.3 19.3,22 16,22 Z" id="Fill" fill="#0E141A"></path>
    </g>
</svg>