<?xml version="1.0" encoding="UTF-8"?>
<svg width="32px" height="32px" viewBox="0 0 32 32" version="1.1" xmlns="http://www.w3.org/2000/svg" xmlns:xlink="http://www.w3.org/1999/xlink">
    <!-- Generator: Sketch 58 (84663) - https://sketch.com -->
    <title>Actions / Controls / rewind--30 </title>
    <desc>Created with Sketch.</desc>
    <g id="Actions-/-Controls-/-rewind--30-" stroke="none" stroke-width="1" fill="none" fill-rule="evenodd">
        <path d="M4,18 C4,24.627417 9.372583,30 16,30 C22.627417,30 28,24.627417 28,18 C28,11.372583 22.627417,6 16,6 L12,6 L12,1 L6,7 L12,13 L12,8 L16,8 C21.5228475,8 26,12.4771525 26,18 C26,23.5228475 21.5228475,28 16,28 C10.4771525,28 6,23.5228475 6,18 L4,18 Z M19.64,22.13 C19.1980338,22.1419514 18.7594842,22.0494449 18.36,21.86 C18.0030705,21.6826076 17.696884,21.4177047 17.47,21.09 C17.2320014,20.7086184 17.0722353,20.2837085 17,19.84 C16.8768941,19.2887259 16.8198262,18.7247608 16.83,18.16 C16.820945,17.5952861 16.8779996,17.0314523 17,16.48 C17.0893291,16.0331564 17.2660448,15.6083592 17.52,15.23 C17.746884,14.9022953 18.0530705,14.6373924 18.41,14.46 C18.8094842,14.2705551 19.2480338,14.1780486 19.69,14.19 C20.5347832,14.1257265 21.35244,14.5042713 21.85,15.19 C22.36129,16.078613 22.6044084,17.0962372 22.55,18.12 C22.6044084,19.1437628 22.36129,20.161387 21.85,21.05 C21.3619528,21.7821467 20.5175123,22.1948144 19.64,22.13 L19.64,22.13 Z M19.64,20.91 C20.0554956,20.9535513 20.4542789,20.7342205 20.64,20.36 C20.8598659,19.88808 20.9627707,19.370126 20.94,18.85 L20.94,17.47 C20.9639474,16.9530072 20.8609487,16.4380136 20.64,15.97 C20.415306,15.6219113 20.0293104,15.4116457 19.615,15.4116457 C19.2006896,15.4116457 18.814694,15.6219113 18.59,15.97 C18.3728769,16.4390052 18.2733377,16.953863 18.3,17.47 L18.3,18.85 C18.2744961,19.3692838 18.3739458,19.8871081 18.59,20.36 C18.7819218,20.7533624 19.2073516,20.9762066 19.64,20.91 L19.64,20.91 Z M12.62,17.42 C12.9751292,17.4552417 13.330868,17.3591922 13.62,17.15 C13.8240255,16.9843136 13.9387398,16.7326824 13.93,16.47 L13.93,16.39 C13.9449431,16.111007 13.8350045,15.839825 13.63,15.65 C13.3970319,15.4590079 13.1007495,15.3626269 12.8,15.38 C12.4865574,15.3738245 12.1778421,15.4570736 11.91,15.62 C11.6337866,15.7910173 11.4010173,16.0237866 11.23,16.3 L10.3,15.47 C10.4358499,15.29096 10.5828056,15.1206251 10.74,14.96 C10.90264,14.8046991 11.0840447,14.6703253 11.28,14.56 C11.4987446,14.4359786 11.7346305,14.344994 11.98,14.29 C12.2641605,14.2175694 12.5568166,14.1839308 12.85,14.19 C13.2080533,14.1882848 13.5646695,14.235385 13.91,14.33 C14.2070223,14.407993 14.4856972,14.5439319 14.73,14.73 C14.9539913,14.8978917 15.138341,15.1129663 15.27,15.36 C15.392864,15.6191995 15.4544522,15.9031897 15.45,16.19 C15.4517875,16.4179704 15.4145849,16.6445683 15.34,16.86 C15.2633768,17.0501165 15.155188,17.2259233 15.02,17.38 C14.8844015,17.525256 14.7255628,17.6469197 14.55,17.74 C14.3697584,17.8317623 14.1780615,17.8990244 13.98,17.94 L13.98,18 C14.1989154,18.0396941 14.4110512,18.110406 14.61,18.21 C14.8023915,18.3034555 14.9754189,18.4323779 15.12,18.59 C15.2640857,18.7524415 15.3791019,18.9384971 15.46,19.14 C15.5435107,19.3741534 15.5841597,19.621435 15.58,19.87 C15.5874923,20.1882125 15.518926,20.5036176 15.38,20.79 C15.2455549,21.072006 15.0469144,21.3185942 14.8,21.51 C14.5343573,21.7147695 14.2323842,21.8674525 13.91,21.96 C13.5372631,22.0725547 13.1493054,22.1265315 12.76,22.12 C12.423415,22.124523 12.0875539,22.0875783 11.76,22.01 C11.4940461,21.9408094 11.2384732,21.8365626 11,21.7 C10.7945254,21.5750381 10.6062643,21.4237569 10.44,21.25 C10.2782631,21.0792481 10.131084,20.8952742 10,20.7 L11.07,19.89 C11.151646,20.0374487 11.2452958,20.1779234 11.35,20.31 C11.454984,20.4382457 11.5759693,20.5525096 11.71,20.65 C11.8472597,20.7469433 11.9991929,20.8212217 12.16,20.87 C12.3456433,20.9206323 12.5376219,20.9442086 12.73,20.94 C13.0890203,20.9676352 13.4454795,20.8606974 13.73,20.64 C13.9592429,20.4180368 14.0829254,20.1088305 14.07,19.79 L14.07,19.71 C14.0771799,19.4004303 13.9405425,19.1049981 13.7,18.91 C13.3849263,18.7074666 13.0139924,18.609484 12.64,18.63 L11.88,18.63 L11.88,17.42 L12.62,17.42 Z" id="Fill" fill="#0E141A"></path>
    </g>
</svg>