<?xml version="1.0" encoding="UTF-8"?>
<svg width="32px" height="32px" viewBox="0 0 32 32" version="1.1" xmlns="http://www.w3.org/2000/svg" xmlns:xlink="http://www.w3.org/1999/xlink">
    <!-- Generator: Sketch 58 (84663) - https://sketch.com -->
    <title>Actions / Controls / settings--adjust </title>
    <desc>Created with Sketch.</desc>
    <g id="Actions-/-Controls-/-settings--adjust-" stroke="none" stroke-width="1" fill="none" fill-rule="evenodd">
        <path d="M30,7 L24.9,7 C24.4268075,4.66967602 22.3778816,2.99498744 20,2.99498744 C17.6221184,2.99498744 15.5731925,4.66967602 15.1,7 L2,7 L2,9 L15.1,9 C15.5731925,11.330324 17.6221184,13.0050126 20,13.0050126 C22.3778816,13.0050126 24.4268075,11.330324 24.9,9 L30,9 L30,7 Z M20,11 C18.3431458,11 17,9.65685425 17,8 C17,6.34314575 18.3431458,5 20,5 C21.6568542,5 23,6.34314575 23,8 C23,9.65685425 21.6568542,11 20,11 L20,11 Z M2,25 L7.1,25 C7.57319247,27.330324 9.62211839,29.0050126 12,29.0050126 C14.3778816,29.0050126 16.4268075,27.330324 16.9,25 L30,25 L30,23 L16.9,23 C16.4268075,20.669676 14.3778816,18.9949874 12,18.9949874 C9.62211839,18.9949874 7.57319247,20.669676 7.1,23 L2,23 L2,25 Z M9,24 C9,22.3431458 10.3431458,21 12,21 C13.6568542,21 15,22.3431458 15,24 C15,25.6568542 13.6568542,27 12,27 C10.3431458,27 9,25.6568542 9,24 Z" id="Fill" fill="#0E141A"></path>
    </g>
</svg>