<?xml version="1.0" encoding="UTF-8"?>
<svg width="32px" height="32px" viewBox="0 0 32 32" version="1.1" xmlns="http://www.w3.org/2000/svg" xmlns:xlink="http://www.w3.org/1999/xlink">
    <!-- Generator: Sketch 58 (84663) - https://sketch.com -->
    <title>Actions / Controls / stop--outline </title>
    <desc>Created with Sketch.</desc>
    <g id="Actions-/-Controls-/-stop--outline-" stroke="none" stroke-width="1" fill="none" fill-rule="evenodd">
        <path d="M16,4 C22.627417,4 28,9.372583 28,16 C28,22.627417 22.627417,28 16,28 C9.372583,28 4,22.627417 4,16 C4,9.372583 9.372583,4 16,4 L16,4 Z M16,2 C8.2680135,2 2,8.2680135 2,16 C2,23.7319865 8.2680135,30 16,30 C23.7319865,30 30,23.7319865 30,16 C30,8.2680135 23.7319865,2 16,2 Z M20,12 L20,20 L12,20 L12,12 L20,12 L20,12 Z M20,10 L12,10 C10.8954305,10 10,10.8954305 10,12 L10,20 C10,21.1045695 10.8954305,22 12,22 L20,22 C21.1045695,22 22,21.1045695 22,20 L22,12 C22,10.8954305 21.1045695,10 20,10 Z" id="Fill" fill="#0E141A"></path>
    </g>
</svg>