<?xml version="1.0" encoding="UTF-8"?>
<svg width="32px" height="32px" viewBox="0 0 32 32" version="1.1" xmlns="http://www.w3.org/2000/svg" xmlns:xlink="http://www.w3.org/1999/xlink">
    <!-- Generator: Sketch 58 (84663) - https://sketch.com -->
    <title>Enterprise / Health / 3D-curve--auto-vessels </title>
    <desc>Created with Sketch.</desc>
    <g id="Enterprise-/-Health-/-3D-curve--auto-vessels-" stroke="none" stroke-width="1" fill="none" fill-rule="evenodd">
        <path d="M17,11 C17,9.34314575 18.3431458,8 20,8 L20.1,8 C20.6133647,10.5149632 22.9476987,12.2326695 25.5015243,11.9746808 C28.0553499,11.716692 29.9989795,9.56682359 29.9989795,7 C29.9989795,4.43317641 28.0553499,2.28330801 25.5015243,2.02531923 C22.9476987,1.76733046 20.6133647,3.48503678 20.1,6 L20,6 C17.2385763,6 15,8.23857625 15,11 L15,12 L13,12 C11.3431458,12 10,10.6568542 10,9 L10,7 C10,4.23857625 7.76142375,2 5,2 L4,2 L4,4 L5,4 C6.65685425,4 8,5.34314575 8,7 L8,9 C8,11.7614237 10.2385763,14 13,14 L15,14 L15,21 C15,22.6568542 13.6568542,24 12,24 L11.9,24 C11.3866353,21.4850368 9.05230129,19.7673305 6.4984757,20.0253192 C3.94465012,20.283308 2.00102051,22.4331764 2.00102051,25 C2.00102051,27.5668236 3.94465012,29.716692 6.4984757,29.9746808 C9.05230129,30.2326695 11.3866353,28.5149632 11.9,26 L12,26 C13.3260824,26 14.597852,25.4732158 15.5355339,24.5355339 C16.4732158,23.597852 17,22.3260824 17,21 L19.5,21 C20.8807119,21 22,22.1192881 22,23.5 C22.0054995,25.9829999 24.0170001,27.9945005 26.5,28 L28,28 L28,26 L26.5,26 C25.1192881,26 24,24.8807119 24,23.5 C23.9945005,21.0170001 21.9829999,19.0054995 19.5,19 L17,19 L17,11 Z M25,4 C26.6568542,4 28,5.34314575 28,7 C28,8.65685425 26.6568542,10 25,10 C23.3431458,10 22,8.65685425 22,7 C22,5.34314575 23.3431458,4 25,4 L25,4 Z M7,28 C5.34314575,28 4,26.6568542 4,25 C4,23.3431458 5.34314575,22 7,22 C8.65685425,22 10,23.3431458 10,25 C10,26.6568542 8.65685425,28 7,28 L7,28 Z" id="Fill" fill="#0E141A"></path>
    </g>
</svg>