<?xml version="1.0" encoding="UTF-8"?>
<svg width="32px" height="32px" viewBox="0 0 32 32" version="1.1" xmlns="http://www.w3.org/2000/svg" xmlns:xlink="http://www.w3.org/1999/xlink">
    <!-- Generator: Sketch 58 (84663) - https://sketch.com -->
    <title>Enterprise / Health / annotation-visibility </title>
    <desc>Created with Sketch.</desc>
    <g id="Enterprise-/-Health-/-annotation-visibility-" stroke="none" stroke-width="1" fill="none" fill-rule="evenodd">
        <path d="M28,4 L4,4 C2.8954305,4 2,4.8954305 2,6 L2,26 C2,27.1045695 2.8954305,28 4,28 L28,28 C29.1045695,28 30,27.1045695 30,26 L30,6 C30,4.8954305 29.1045695,4 28,4 Z M28,26 L4,26 L4,6 L28,6 L28,26 Z M21,20 L13,20 C12.8990655,19.3060107 12.5925588,18.6581671 12.12,18.14 L15.92,11.5 L14.18,10.5 L10.4,17.12 C10.106836,17.0393418 9.80405564,16.9989711 9.5,17 C7.76431133,16.9939164 6.28635957,18.2608127 6.02702118,19.9770283 C5.7676828,21.6932438 6.80530982,23.3402708 8.46529876,23.8473102 C10.1252877,24.3543495 11.9061182,23.568213 12.65,22 L21,22 L21,20 Z M9.5,22 C8.67157288,22 8,21.3284271 8,20.5 C8,19.6715729 8.67157288,19 9.5,19 C10.3284271,19 11,19.6715729 11,20.5 C11,21.3284271 10.3284271,22 9.5,22 Z M19,8 L26,8 L26,10 L19,10 L19,8 Z M19,12 L23,12 L23,14 L19,14 L19,12 Z" id="Fill" fill="#0E141A"></path>
    </g>
</svg>