<?xml version="1.0" encoding="UTF-8"?>
<svg width="32px" height="32px" viewBox="0 0 32 32" version="1.1" xmlns="http://www.w3.org/2000/svg" xmlns:xlink="http://www.w3.org/1999/xlink">
    <!-- Generator: Sketch 58 (84663) - https://sketch.com -->
    <title>Enterprise / Health / pills </title>
    <desc>Created with Sketch.</desc>
    <g id="Enterprise-/-Health-/-pills-" stroke="none" stroke-width="1" fill="none" fill-rule="evenodd">
        <path d="M21.9999998,14.0000001 C20.594307,14.0005566 19.2139593,14.3742857 17.9999998,15.083 L17.9999998,9.0000001 C17.9999998,5.13400679 14.8659932,2.0000001 10.9999998,2.0000001 C7.13400679,2.0000001 3.99999978,5.13400679 3.99999978,9.0000001 L3.99999978,23.0000001 C3.99926678,25.921658 5.81345477,28.5363938 8.55049582,29.5584957 C11.2875369,30.5805976 14.3715214,29.795002 16.286,27.588 C18.8246117,30.1841646 22.7936937,30.7441487 25.9514839,28.9516697 C29.1092741,27.1591907 30.6630803,23.4642103 29.735303,19.9536762 C28.8075258,16.4431422 25.6310628,13.9982952 21.9999998,14.0000001 Z M22,16 C24.9247666,16.0050194 27.4205131,18.1164801 27.91,21 L16.09,21 C16.5794869,18.1164801 19.0752334,16.0050194 22,16 Z M6,9 C6,6.23857625 8.23857625,4 11,4 C13.7614237,4 16,6.23857625 16,9 L16,15 L6,15 L6,9 Z M11,28 C8.23994685,27.9966939 6.00330612,25.7600532 6,23 L6,17 L15.765,17 C13.7111212,19.5452869 13.4239178,23.0881231 15.041,25.931 C14.1039875,27.2290875 12.600944,27.9986487 11,28 L11,28 Z M22,28 C19.0752334,27.9949806 16.5794869,25.8835199 16.09,23 L27.91,23 C27.4205131,25.8835199 24.9247666,27.9949806 22,28 L22,28 Z" id="Fill" fill="#0E141A"></path>
    </g>
</svg>