<?xml version="1.0" encoding="UTF-8"?>
<svg width="32px" height="32px" viewBox="0 0 32 32" version="1.1" xmlns="http://www.w3.org/2000/svg" xmlns:xlink="http://www.w3.org/1999/xlink">
    <!-- Generator: Sketch 58 (84663) - https://sketch.com -->
    <title>Person / Senses / movement </title>
    <desc>Created with Sketch.</desc>
    <g id="Person-/-Senses-/-movement-" stroke="none" stroke-width="1" fill="none" fill-rule="evenodd">
        <path d="M24,20 L22.59,21.41 L26.17,25 L10,25 C7.790861,25 6,23.209139 6,21 C6,18.790861 7.790861,17 10,17 L22,17 C25.3137085,17 28,14.3137085 28,11 C28,7.68629154 25.3137085,5 22,5 L5.83,5 L9.41,1.41 L8,0 L2,6 L8,12 L9.41,10.59 L5.83,7 L22,7 C24.209139,7 26,8.790861 26,11 C26,13.209139 24.209139,15 22,15 L10,15 C6.6862915,15 4,17.6862915 4,21 C4,24.3137085 6.6862915,27 10,27 L26.17,27 L22.59,30.59 L24,32 L30,26 L24,20 Z" id="Fill" fill="#0E141A"></path>
    </g>
</svg>