<?xml version="1.0" encoding="UTF-8"?>
<svg width="32px" height="32px" viewBox="0 0 32 32" version="1.1" xmlns="http://www.w3.org/2000/svg" xmlns:xlink="http://www.w3.org/1999/xlink">
    <!-- Generator: Sketch 58 (84663) - https://sketch.com -->
    <title>Actions / Navigation / arrow--down </title>
    <desc>Created with Sketch.</desc>
    <g id="Actions-/-Navigation-/-arrow--down-" stroke="none" stroke-width="1" fill="none" fill-rule="evenodd">
        <polygon id="Fill" fill="#0E141A" points="24.59 16.59 17 24.17 17 2 15 2 15 24.17 7.41 16.59 6 18 16 28 26 18"></polygon>
    </g>
</svg>