<?xml version="1.0" encoding="UTF-8"?>
<svg width="32px" height="32px" viewBox="0 0 32 32" version="1.1" xmlns="http://www.w3.org/2000/svg" xmlns:xlink="http://www.w3.org/1999/xlink">
    <!-- Generator: Sketch 58 (84663) - https://sketch.com -->
    <title>Actions / Navigation / down-to-bottom </title>
    <desc>Created with Sketch.</desc>
    <g id="Actions-/-Navigation-/-down-to-bottom-" stroke="none" stroke-width="1" fill="none" fill-rule="evenodd">
        <path d="M16,19 L6,9 L7.41,7.59 L16,16.17 L24.59,7.59 L26,9 L16,19 Z M4,23 L28,23 L28,25 L4,25 L4,23 Z" id="Fill" fill="#0E141A"></path>
    </g>
</svg>