<?xml version="1.0" encoding="UTF-8"?>
<svg width="32px" height="32px" viewBox="0 0 32 32" version="1.1" xmlns="http://www.w3.org/2000/svg" xmlns:xlink="http://www.w3.org/1999/xlink">
    <!-- Generator: Sketch 58 (84663) - https://sketch.com -->
    <title>Actions / Navigation / zoom--out </title>
    <desc>Created with Sketch.</desc>
    <g id="Actions-/-Navigation-/-zoom--out-" stroke="none" stroke-width="1" fill="none" fill-rule="evenodd">
        <path d="M9,13 L19,13 L19,15 L9,15 L9,13 Z M22.45,21 C24.0980279,19.0398912 25.0011023,16.5608634 25,14 C25,7.92486775 20.0751322,3 14,3 C7.92486775,3 3,7.92486775 3,14 C3,20.0751322 7.92486775,25 14,25 C16.5608634,25.0011023 19.0398912,24.0980279 21,22.45 L28.59,30 L30,28.59 L22.45,21 Z M14,23 C9.02943725,23 5,18.9705627 5,14 C5,9.02943725 9.02943725,5 14,5 C18.9705627,5 23,9.02943725 23,14 C23,18.9705627 18.9705627,23 14,23 L14,23 Z" id="Fill" fill="#0E141A"></path>
    </g>
</svg>