<?xml version="1.0" encoding="UTF-8"?>
<svg width="32px" height="32px" viewBox="0 0 32 32" version="1.1" xmlns="http://www.w3.org/2000/svg" xmlns:xlink="http://www.w3.org/1999/xlink">
    <!-- Generator: Sketch 58 (84663) - https://sketch.com -->
    <title>Person / User / face--dizzy--filled </title>
    <desc>Created with Sketch.</desc>
    <g id="Person-/-User-/-face--dizzy--filled-" stroke="none" stroke-width="1" fill="none" fill-rule="evenodd">
        <path d="M16,2 C8.2680135,2 2,8.2680135 2,16 C2,23.7319865 8.2680135,30 16,30 C23.7319865,30 30,23.7319865 30,16 C30,12.2869691 28.5250042,8.72601436 25.8994949,6.10050506 C23.2739856,3.47499577 19.7130309,2 16,2 Z M9,16.41 L7.59,15 L9.59,13 L7.59,11 L9,9.59 L11,11.59 L13,9.59 L14.41,11 L12.41,13 L14.41,15 L13,16.41 L11,14.41 L9,16.41 Z M16,25 C14.7866133,25 13.6927044,24.2690735 13.2283614,23.1480503 C12.7640184,22.0270271 13.0206857,20.7366736 13.8786797,19.8786797 C14.7366736,19.0206857 16.0270271,18.7640184 17.1480503,19.2283614 C18.2690735,19.6927044 19,20.7866133 19,22 C19,23.6568542 17.6568542,25 16,25 L16,25 Z M24.41,15 L23,16.41 L21,14.41 L19,16.41 L17.59,15 L19.59,13 L17.59,11 L19,9.59 L21,11.59 L23,9.59 L24.41,11 L22.41,13 L24.41,15 Z" id="Fill" fill="#0E141A"></path>
    </g>
</svg>