<?xml version="1.0" encoding="UTF-8"?>
<svg width="32px" height="32px" viewBox="0 0 32 32" version="1.1" xmlns="http://www.w3.org/2000/svg" xmlns:xlink="http://www.w3.org/1999/xlink">
    <!-- Generator: Sketch 58 (84663) - https://sketch.com -->
    <title>Person / User / face--cool </title>
    <desc>Created with Sketch.</desc>
    <g id="Person-/-User-/-face--cool-" stroke="none" stroke-width="1" fill="none" fill-rule="evenodd">
        <path d="M16,24 C18.8077615,23.9952526 21.4075145,22.5188965 22.85,20.11 L21.14,19.11 C20.0545328,20.9125528 18.1041472,22.0147779 16,22.0147779 C13.8958528,22.0147779 11.9454672,20.9125528 10.86,19.11 L9.15,20.11 C10.5924855,22.5188965 13.1922385,23.9952526 16,24 Z M16,2 C8.2680135,2 2,8.2680135 2,16 C2,23.7319865 8.2680135,30 16,30 C23.7319865,30 30,23.7319865 30,16 C30,12.2869691 28.5250042,8.72601436 25.8994949,6.10050506 C23.2739856,3.47499577 19.7130309,2 16,2 Z M16,4 C20.6852688,4.00730856 24.937808,6.74080486 26.89,11 L25,11 C25,10.4477153 24.5522847,10 24,10 L8,10 C7.44771525,10 7,10.4477153 7,11 L5.11,11 C7.06219199,6.74080486 11.3147312,4.00730856 16,4 Z M16,28 C9.372583,28 4,22.627417 4,16 C4.00466777,14.9870211 4.13909539,13.978814 4.4,13 L7,13 L7,15 C7,16.1045695 7.8954305,17 9,17 L12.31,17 C13.2975632,17.0135218 14.1471294,16.304134 14.31,15.33 L14.83,12 L17.17,12 L17.72,15.33 C17.8828706,16.304134 18.7324368,17.0135218 19.72,17 L23,17 C24.1045695,17 25,16.1045695 25,15 L25,13 L27.6,13 C27.8609046,13.978814 27.9953322,14.9870211 28,16 C28,22.627417 22.627417,28 16,28 Z" id="Fill" fill="#0E141A"></path>
    </g>
</svg>