<?xml version="1.0" encoding="UTF-8"?>
<svg width="32px" height="32px" viewBox="0 0 32 32" version="1.1" xmlns="http://www.w3.org/2000/svg" xmlns:xlink="http://www.w3.org/1999/xlink">
    <!-- Generator: Sketch 58 (84663) - https://sketch.com -->
    <title>Person / User / user--role </title>
    <desc>Created with Sketch.</desc>
    <g id="Person-/-User-/-user--role-" stroke="none" stroke-width="1" fill="none" fill-rule="evenodd">
        <path d="M28.07,21 L22,15 L28.07,9 L29.5,10.41 L24.86,15 L29.5,19.59 L28.07,21 Z M22,30 L20,30 L20,25 C20,22.2385763 17.7614237,20 15,20 L9,20 C6.23857625,20 4,22.2385763 4,25 L4,30 L2,30 L2,25 C2,21.1340068 5.13400675,18 9,18 L15,18 C18.8659932,18 22,21.1340068 22,25 L22,30 Z M12,4 C14.7614237,4 17,6.23857625 17,9 C17,11.7614237 14.7614237,14 12,14 C9.23857625,14 7,11.7614237 7,9 C7,6.23857625 9.23857625,4 12,4 L12,4 Z M12,2 C8.13400675,2 5,5.13400675 5,9 C5,12.8659932 8.13400675,16 12,16 C15.8659932,16 19,12.8659932 19,9 C19,5.13400675 15.8659932,2 12,2 Z" id="Fill" fill="#0E141A"></path>
    </g>
</svg>