<?xml version="1.0" encoding="UTF-8"?>
<svg width="32px" height="32px" viewBox="0 0 32 32" version="1.1" xmlns="http://www.w3.org/2000/svg" xmlns:xlink="http://www.w3.org/1999/xlink">
    <!-- Generator: Sketch 58 (84663) - https://sketch.com -->
    <title>Person / User / user--favorite </title>
    <desc>Created with Sketch.</desc>
    <g id="Person-/-User-/-user--favorite-" stroke="none" stroke-width="1" fill="none" fill-rule="evenodd">
        <path d="M27.303,12 C26.5853761,11.9996295 25.8977664,12.2879354 25.395,12.8 L25.002,13.202 L24.605,12.799 C24.1019255,12.2874269 23.4144894,11.9993027 22.697,11.9993027 C21.9795106,11.9993027 21.2920745,12.2874269 20.789,12.799 C19.7362724,13.8726701 19.7362724,15.5913299 20.789,16.665 L25.002,20.929 L29.211,16.665 C30.2637276,15.5913299 30.2637276,13.8726701 29.211,12.799 C28.7080671,12.2873027 28.0204784,11.9993027 27.303,12 L27.303,12 Z M2,30 L4,30 L4,25 C4.00330612,22.2399468 6.23994685,20.0033061 9,20 L15,20 C17.7600532,20.0033061 19.9966939,22.2399468 20,25 L20,30 L22,30 L22,25 C21.9955914,21.1358343 18.8641657,18.0044086 15,18 L9,18 C5.13583434,18.0044086 2.00440864,21.1358343 2,25 L2,30 Z M12,4 C14.7614237,4 17,6.23857625 17,9 C17,11.7614237 14.7614237,14 12,14 C9.23857625,14 7,11.7614237 7,9 C7,6.23857625 9.23857625,4 12,4 L12,4 Z M12,2 C8.13400675,2 5,5.13400675 5,9 C5,12.8659932 8.13400675,16 12,16 C15.8659932,16 19,12.8659932 19,9 C19,5.13400675 15.8659932,2 12,2 Z" id="Fill" fill="#0E141A"></path>
    </g>
</svg>