<?xml version="1.0" encoding="UTF-8"?>
<svg width="32px" height="32px" viewBox="0 0 32 32" version="1.1" xmlns="http://www.w3.org/2000/svg" xmlns:xlink="http://www.w3.org/1999/xlink">
    <!-- Generator: Sketch 58 (84663) - https://sketch.com -->
    <title>Organization / Status / information </title>
    <desc>Created with Sketch.</desc>
    <g id="Organization-/-Status-/-information-" stroke="none" stroke-width="1" fill="none" fill-rule="evenodd">
        <path d="M17,22 L17,13 L13,13 L13,15 L15,15 L15,22 L12,22 L12,24 L20,24 L20,22 L17,22 Z M16,7 C15.1715729,7 14.5,7.67157288 14.5,8.5 C14.5,9.32842712 15.1715729,10 16,10 C16.8284271,10 17.5,9.32842712 17.5,8.5 C17.5,7.67157288 16.8284271,7 16,7 L16,7 Z M16,30 C8.2680135,30 2,23.7319865 2,16 C2,8.2680135 8.2680135,2 16,2 C23.7319865,2 30,8.2680135 30,16 C30,23.7319865 23.7319865,30 16,30 L16,30 Z M16,4 C9.372583,4 4,9.372583 4,16 C4,22.627417 9.372583,28 16,28 C22.627417,28 28,22.627417 28,16 C28,9.372583 22.627417,4 16,4 Z" id="Fill" fill="#0E141A"></path>
    </g>
</svg>