<?xml version="1.0" encoding="UTF-8"?>
<svg width="32px" height="32px" viewBox="0 0 32 32" version="1.1" xmlns="http://www.w3.org/2000/svg" xmlns:xlink="http://www.w3.org/1999/xlink">
    <!-- Generator: Sketch 58 (84663) - https://sketch.com -->
    <title>Tools / Technology / aperture </title>
    <desc>Created with Sketch.</desc>
    <g id="Tools-/-Technology-/-aperture-" stroke="none" stroke-width="1" fill="none" fill-rule="evenodd">
        <path d="M16,2 C8.2680135,2 2,8.2680135 2,16 C2,23.7319865 8.2680135,30 16,30 C23.7319865,30 30,23.7319865 30,16 C30,12.2869691 28.5250042,8.72601436 25.8994949,6.10050506 C23.2739856,3.47499577 19.7130309,2 16,2 Z M27.84,14.14 L22,17.52 L22,5.62 C25.1319111,7.4339803 27.2777977,10.5646231 27.84,14.14 L27.84,14.14 Z M12,18.68 L12,13.32 L16,11 L20,13.31 L20,18.67 L16,21 L12,18.68 Z M20,4.68 L20,11 L10.34,5.42 C13.312205,3.82099437 16.8235916,3.55927611 20,4.7 L20,4.68 Z M8.48,6.68 L14,9.85 L4,15.62 C4.11567297,12.1230345 5.75183137,8.85071769 8.48,6.66 L8.48,6.68 Z M4.16,17.85 L10,14.47 L10,26.38 C6.86561886,24.5638939 4.71937952,21.4290615 4.16,17.85 L4.16,17.85 Z M12,27.3 L12,21 L21.67,26.58 C19.9271417,27.5165709 17.9785599,28.0045755 16,28.0000319 C14.6366681,27.9946277 13.2841336,27.7579341 12,27.3 L12,27.3 Z M23.52,25.3 L18,22.14 L28,16.37 C27.8872105,19.8705001 26.2507713,23.1470314 23.52,25.34 L23.52,25.3 Z" id="Fill" fill="#0E141A"></path>
    </g>
</svg>