<?xml version="1.0" encoding="UTF-8"?>
<svg width="32px" height="32px" viewBox="0 0 32 32" version="1.1" xmlns="http://www.w3.org/2000/svg" xmlns:xlink="http://www.w3.org/1999/xlink">
    <!-- Generator: Sketch 58 (84663) - https://sketch.com -->
    <title>Tools / Technology / at </title>
    <desc>Created with Sketch.</desc>
    <g id="Tools-/-Technology-/-at-" stroke="none" stroke-width="1" fill="none" fill-rule="evenodd">
        <path d="M16,3 C12.5456527,2.9785438 9.2265707,4.34129162 6.78393116,6.78393116 C4.34129162,9.2265707 2.9785438,12.5456527 2.99975042,16 L2.99975042,17 C2.99975042,24.1797017 8.82029825,30 16,30 L23,30 L23,28 L16,28 C13.0826186,28 10.2847256,26.8410748 8.22182541,24.7781746 C6.15892524,22.7152744 5,19.9173814 5,17 L5,16 C4.98392844,13.0777213 6.13769205,10.2704807 8.20408637,8.20408637 C10.2704807,6.13769205 13.0777213,4.98392844 16,5 C18.9473348,4.89847078 21.8046069,6.02475986 23.8899235,8.11007648 C25.9752401,10.1953931 27.1015292,13.0526652 27,16 C27,19.59 25.6,21 23.34,21 C21.76,21 21,19.71 21,18 L21,10 L19,10 L19,11.94 C18.2891068,10.6885001 16.938046,9.93962633 15.5,10 C12.4812363,9.98890227 10.0220145,12.4212962 10,15.44 L10,17.56 C10.0220145,20.5787038 12.4812363,23.0110977 15.5,23 C17.2043066,23.0499479 18.7756921,22.0835459 19.5,20.54 C20.2242957,22.0414678 21.7429665,22.9969487 23.41,23 C26.48,23 29,21 29,16 C29.0772833,12.5290703 27.7324764,9.17737608 25.2775502,6.72244982 C22.8226239,4.26752356 19.4709297,2.92271667 16,3 Z M19,17.56 C19,19.4929966 17.4329966,21.0599999 15.5,21.0599999 C13.5670034,21.0599999 12,19.4929966 12,17.56 L12,15.44 C12,13.5070034 13.5670034,11.94 15.5,11.94 C17.4329966,11.94 19,13.5070034 19,15.44 L19,17.56 Z" id="Fill" fill="#0E141A"></path>
    </g>
</svg>