<?xml version="1.0" encoding="UTF-8"?>
<svg width="32px" height="32px" viewBox="0 0 32 32" version="1.1" xmlns="http://www.w3.org/2000/svg" xmlns:xlink="http://www.w3.org/1999/xlink">
    <!-- Generator: Sketch 58 (84663) - https://sketch.com -->
    <title>Tools / Technology / blog </title>
    <desc>Created with Sketch.</desc>
    <g id="Tools-/-Technology-/-blog-" stroke="none" stroke-width="1" fill="none" fill-rule="evenodd">
        <path d="M4,24 L14,24 L14,26 L4,26 L4,24 Z M4,18 L14,18 L14,20 L4,20 L4,18 Z M26,14 L6,14 C4.8954305,14 4,13.1045695 4,12 L4,6 C4,4.8954305 4.8954305,4 6,4 L26,4 C27.1045695,4 28,4.8954305 28,6 L28,12 C28,13.1045695 27.1045695,14 26,14 Z M6,6 L6,12 L26,12 L26,6 L6,6 Z M26,28 L20,28 C18.8954305,28 18,27.1045695 18,26 L18,20 C18,18.8954305 18.8954305,18 20,18 L26,18 C27.1045695,18 28,18.8954305 28,20 L28,26 C28,27.1045695 27.1045695,28 26,28 Z M20,20 L20,26 L26,26 L26,20 L20,20 Z" id="Fill" fill="#0E141A"></path>
    </g>
</svg>