<?xml version="1.0" encoding="UTF-8"?>
<svg width="32px" height="32px" viewBox="0 0 32 32" version="1.1" xmlns="http://www.w3.org/2000/svg" xmlns:xlink="http://www.w3.org/1999/xlink">
    <!-- Generator: Sketch 58 (84663) - https://sketch.com -->
    <title>Tools / Technology / debug </title>
    <desc>Created with Sketch.</desc>
    <g id="Tools-/-Technology-/-debug-" stroke="none" stroke-width="1" fill="none" fill-rule="evenodd">
        <path d="M29.83,20 L30.17,18 L25,17.15 L25,12.77 L30.06,11.41 L29.55,9.48 L24.72,10.77 C24.0546018,8.25485622 22.3333598,6.15071077 20,5 L20,2 L18,2 L18,4.23 C16.6843027,3.92331002 15.3156973,3.92331002 14,4.23 L14,2 L12,2 L12,5 C9.65927002,6.16390369 7.94025764,8.28803364 7.29,10.82 L2.46,9.48 L2,11.41 L7,12.77 L7,17.15 L1.84,18 L2.16,20 L7,19.18 C7.02284424,20.4139839 7.30209091,21.6297285 7.82,22.75 L3.29,27.29 L4.71,28.71 L8.9,24.51 C10.6052939,26.6991113 13.2250702,27.9791773 16,27.9791773 C18.7749298,27.9791773 21.3947061,26.6991113 23.1,24.51 L27.29,28.71 L28.71,27.29 L24.17,22.75 C24.6913581,21.6304742 24.9740177,20.4146972 25,19.18 L29.83,20 Z M15,25.92 C11.5590733,25.4233474 9.00407452,22.4765822 9,19 L9,13 L15,13 L15,25.92 Z M9.29,11 C10.1724731,8.03034306 12.9019972,5.9939659 16,5.9939659 C19.0980028,5.9939659 21.8275269,8.03034306 22.71,11 L9.29,11 Z M23,19 C22.9959255,22.4765822 20.4409267,25.4233474 17,25.92 L17,13 L23,13 L23,19 Z" id="Fill" fill="#0E141A"></path>
    </g>
</svg>