<?xml version="1.0" encoding="UTF-8"?>
<svg width="32px" height="32px" viewBox="0 0 32 32" version="1.1" xmlns="http://www.w3.org/2000/svg" xmlns:xlink="http://www.w3.org/1999/xlink">
    <!-- Generator: Sketch 58 (84663) - https://sketch.com -->
    <title>Tools / Technology / email </title>
    <desc>Created with Sketch.</desc>
    <g id="Tools-/-Technology-/-email-" stroke="none" stroke-width="1" fill="none" fill-rule="evenodd">
        <path d="M28,6 L4,6 C2.8954305,6 2,6.8954305 2,8 L2,24 C2,25.1045695 2.8954305,26 4,26 L28,26 C29.1045695,26 30,25.1045695 30,24 L30,8 C30,6.8954305 29.1045695,6 28,6 Z M25.8,8 L16,14.78 L6.2,8 L25.8,8 Z M4,24 L4,8.91 L15.43,16.82 C15.7727946,17.0578071 16.2272054,17.0578071 16.57,16.82 L28,8.91 L28,24 L4,24 Z" id="Fill" fill="#0E141A"></path>
    </g>
</svg>