<?xml version="1.0" encoding="UTF-8"?>
<svg width="32px" height="32px" viewBox="0 0 32 32" version="1.1" xmlns="http://www.w3.org/2000/svg" xmlns:xlink="http://www.w3.org/1999/xlink">
    <!-- Generator: Sketch 58 (84663) - https://sketch.com -->
    <title>Tools / Technology / fingerprint-recognition </title>
    <desc>Created with Sketch.</desc>
    <g id="Tools-/-Technology-/-fingerprint-recognition-" stroke="none" stroke-width="1" fill="none" fill-rule="evenodd">
        <path d="M7,5.21 C6.67220328,5.20582241 6.38299313,4.99455843 6.27932629,4.6835579 C6.17565944,4.37255738 6.28026918,4.0300201 6.54,3.83 C9.29920506,1.87794463 12.6220937,0.883888084 16,1 C18.66,1 22.48,1.45 25.5,3.62 C25.8437854,3.86663679 25.9241661,4.34445547 25.68,4.69 C25.4265939,5.0316994 24.9461236,5.10732899 24.6,4.86 C22.0354981,3.23020393 19.0364931,2.41768281 16,2.53 C12.9684873,2.42700821 9.9855256,3.31136861 7.5,5.05 C7.35848799,5.1626467 7.18061962,5.21956458 7,5.21 L7,5.21 Z M28.23,12.26 C27.9791521,12.2577082 27.7447155,12.1349081 27.6,11.93 C25.87,9.49 22.78,6.24 16,6.24 C11.4246805,6.12478698 7.08192033,8.2532249 4.37,11.94 C4.12026453,12.2804429 3.64295272,12.3562775 3.3,12.11 C3.12522576,11.9883664 3.0094943,11.7989916 2.98097866,11.5879759 C2.95246303,11.3769602 3.01377895,11.16366 3.15,11 C6.15610317,6.93904131 10.9488259,4.59303153 16,4.71 C21.61,4.71 25.81,6.79 28.84,11.05 C29.0820978,11.3981389 28.9971561,11.8764949 28.65,12.12 C28.5262048,12.2057429 28.3804819,12.2543172 28.23,12.26 L28.23,12.26 Z M12.28,31 C11.9626693,30.9983361 11.6779792,30.8045887 11.56,30.51 C11.479181,30.3195884 11.4805924,30.104252 11.5639002,29.9149161 C11.647208,29.7255801 11.8050146,29.5790577 12,29.51 C16.37,27.83 19,24.39 19,20.3 C19.0604544,19.4873199 18.7638536,18.6886252 18.1876142,18.1123858 C17.6113748,17.5361464 16.8126801,17.2395456 16,17.3 C14.14,17.3 13.24,18.3 13,20.65 C12.7680682,22.9342482 10.7713351,24.6261702 8.48,24.48 C7.28117759,24.4974203 6.13026192,24.0100326 5.30854462,23.136958 C4.48682731,22.2638834 4.07002246,21.0855679 4.16,19.89 C4.27502995,13.4539778 9.56335811,8.31751043 16,8.39 C22.6001763,8.3898877 27.961499,13.719936 28,20.32 C27.9294095,22.5523938 27.4586083,24.7539823 26.61,26.82 C26.4407049,27.2028792 25.9993481,27.3838355 25.61,27.23 C25.4222661,27.1526736 25.2732781,27.003444 25.1962559,26.8155851 C25.1192338,26.6277262 25.120582,26.4168587 25.2,26.23 C25.9678975,24.3501091 26.3978307,22.349396 26.47,20.32 C26.4424522,14.5603484 21.7597069,9.90891074 16,9.92 C13.2965446,9.86646311 10.6828614,10.8906837 8.73554267,12.7667133 C6.78822395,14.6427429 5.66728109,17.216428 5.62,19.92 C5.53709189,20.7069482 5.7947026,21.4917841 6.32784636,22.0765224 C6.86099013,22.6612608 7.61876059,22.9900687 8.41,22.98 C9.13738172,23.0523273 9.86350954,22.8310146 10.4268981,22.36528 C10.9902867,21.8995454 11.3442251,21.2280035 11.41,20.5 C11.77,17.39 13.3,15.81 15.97,15.81 C17.1937579,15.7481428 18.3859987,16.2100887 19.2486057,17.0803294 C20.1112127,17.9505701 20.5626366,19.1468346 20.49,20.37 C20.49,25.11 17.49,29.09 12.49,31 C12.4202294,31.0080153 12.3497706,31.0080153 12.28,31 L12.28,31 Z M19.77,30.28 C19.5784708,30.276917 19.3942319,30.2060559 19.25,30.08 C19.1058758,29.9372664 19.0247897,29.7428415 19.0247897,29.54 C19.0247897,29.3371585 19.1058758,29.1427336 19.25,29 C21.4997958,26.6679149 22.7671785,23.5603212 22.79,20.32 C22.79,18.76 22.31,13.67 16.09,13.67 C14.2591835,13.6056029 12.4792434,14.2793859 11.15,15.54 C9.96041581,16.7169829 9.29993434,18.3266809 9.32,20 C9.31452748,20.4213489 8.97138443,20.7600355 8.55,20.76 C8.34670843,20.7626751 8.15082049,20.6837864 8.00612267,20.5409678 C7.86142486,20.3981492 7.7799824,20.2033092 7.78,20 C7.74851943,17.9306041 8.54819725,15.9350117 10,14.46 C11.6092761,12.9154144 13.7702251,12.0798474 16,12.14 C22.08,12.14 24.24,16.54 24.24,20.32 C24.2269243,23.9269112 22.8310835,27.3914597 20.34,30 C20.2008396,30.173138 19.9920895,30.2756819 19.77,30.28 L19.77,30.28 Z M8.66,27.74 C8.1387386,27.7387772 7.6179436,27.7087313 7.1,27.65 C6.82847815,27.6196324 6.59378253,27.4467164 6.48432069,27.1963878 C6.37485886,26.9460592 6.40726068,26.6563489 6.56932069,26.4363878 C6.73138071,26.2164268 6.99847815,26.0996324 7.27,26.13 C9.76,26.41 11.72,25.97 13.11,24.81 C14.4047078,23.6521783 15.1704813,22.0158793 15.23,20.28 C15.240009,20.0753747 15.3332895,19.8837504 15.4881698,19.7496468 C15.6430501,19.6155431 15.8460474,19.5506342 16.05,19.57 C16.4690109,19.6019657 16.7873802,19.9601311 16.77,20.38 C16.6848512,22.5415102 15.7159738,24.5732604 14.09,26 C12.5464264,27.2108906 10.6198697,27.8282403 8.66,27.74 L8.66,27.74 Z" id="Fill" fill="#0E141A"></path>
    </g>
</svg>