<?xml version="1.0" encoding="UTF-8"?>
<svg width="32px" height="32px" viewBox="0 0 32 32" version="1.1" xmlns="http://www.w3.org/2000/svg" xmlns:xlink="http://www.w3.org/1999/xlink">
    <!-- Generator: Sketch 58 (84663) - https://sketch.com -->
    <title>Tools / Technology / game--console </title>
    <desc>Created with Sketch.</desc>
    <g id="Tools-/-Technology-/-game--console-" stroke="none" stroke-width="1" fill="none" fill-rule="evenodd">
        <path d="M7.51,26 C7.02369581,26.0008413 6.53944325,25.9369469 6.07,25.81 C3.13892893,24.9741394 1.4145778,21.9476365 2.19,19 L4.52,10.16 C4.88657607,8.71471346 5.82026459,7.47820704 7.11,6.73 C8.36561771,6.00273952 9.86008111,5.80827923 11.26,6.19 C12.7495604,6.60364049 13.9974058,7.62295606 14.7,9 L17.3,9 C17.9996375,7.62057376 19.2486953,6.60026783 20.74,6.19 C22.1399189,5.80827923 23.6343823,6.00273952 24.89,6.73 C26.1732194,7.47614641 27.1055308,8.70362983 27.48,10.14 L29.81,19 C30.5972439,21.9571059 28.8649884,24.9985726 25.92,25.83 C24.5200811,26.2117208 23.0256177,26.0172605 21.77,25.29 C20.4845196,24.546414 19.551396,23.3178613 19.18,21.88 L19,21 L13,21 L12.77,21.86 C12.398604,23.2978613 11.4654804,24.526414 10.18,25.27 C9.36747855,25.7386356 8.44792931,25.9900479 7.51,26 Z M9.83,8 C9.22653914,8.00204989 8.63392115,8.16054075 8.11,8.46 C7.28885361,8.94178183 6.69198394,9.72921833 6.45,10.65 L4.12,19.49 C3.61280592,21.3845772 4.71550669,23.3365355 6.6,23.88 C7.48369792,24.1210496 8.42709934,23.9986234 9.22,23.54 C10.0456606,23.0633171 10.6441451,22.2737502 10.88,21.35 L11.5,19 L20.5,19 L21.11,21.35 C21.3499683,22.2717609 21.9473662,23.0598942 22.77,23.54 C23.5667196,23.9981251 24.5129698,24.1204541 25.4,23.88 C27.287673,23.3413412 28.3894987,21.3830356 27.87,19.49 L25.54,10.65 C25.3054991,9.72847979 24.7111057,8.93955765 23.89,8.46 C23.0932804,8.00187486 22.1470302,7.87954593 21.26,8.12 C20.1580073,8.43412909 19.2754077,9.26086796 18.89,10.34 L18.65,11 L13.35,11 L13.11,10.34 C12.7211673,9.25944318 11.8349619,8.43281461 10.73,8.12 C10.4365279,8.04086729 10.1339532,8.000524 9.83,8 L9.83,8 Z M10,16 C8.8954305,16 8,15.1045695 8,14 C8,12.8954305 8.8954305,12 10,12 C11.1045695,12 12,12.8954305 12,14 C12,15.1045695 11.1045695,16 10,16 Z M22,13 C22.5522847,13 23,12.5522847 23,12 C23,11.4477153 22.5522847,11 22,11 C21.4477153,11 21,11.4477153 21,12 C21,12.5522847 21.4477153,13 22,13 Z M22,17 C22.5522847,17 23,16.5522847 23,16 C23,15.4477153 22.5522847,15 22,15 C21.4477153,15 21,15.4477153 21,16 C21,16.5522847 21.4477153,17 22,17 Z M20,15 C20.5522847,15 21,14.5522847 21,14 C21,13.4477153 20.5522847,13 20,13 C19.4477153,13 19,13.4477153 19,14 C19,14.5522847 19.4477153,15 20,15 Z M24,15 C24.5522847,15 25,14.5522847 25,14 C25,13.4477153 24.5522847,13 24,13 C23.4477153,13 23,13.4477153 23,14 C23,14.5522847 23.4477153,15 24,15 Z" id="Fill" fill="#0E141A"></path>
    </g>
</svg>