<?xml version="1.0" encoding="UTF-8"?>
<svg width="32px" height="32px" viewBox="0 0 32 32" version="1.1" xmlns="http://www.w3.org/2000/svg" xmlns:xlink="http://www.w3.org/1999/xlink">
    <!-- Generator: Sketch 58 (84663) - https://sketch.com -->
    <title>Tools / Technology / mobile--landscape </title>
    <desc>Created with Sketch.</desc>
    <g id="Tools-/-Technology-/-mobile--landscape-" stroke="none" stroke-width="1" fill="none" fill-rule="evenodd">
        <path d="M3,10 L3,22 C3.00110246,23.1041125 3.89588748,23.9988975 5,24 L27,24 C28.1041125,23.9988975 28.9988975,23.1041125 29,22 L29,10 C28.9983479,8.89611555 28.1038844,8.00165211 27,8 L5,8 C3.89588748,8.00110246 3.00110246,8.89588748 3,10 Z M5,10 L7,10 L7,22 L5,22 L5,10 Z M27,22 L9,22 L9,10 L27,10 L27,22 Z" id="Fill" fill="#0E141A"></path>
    </g>
</svg>