<?xml version="1.0" encoding="UTF-8"?>
<svg width="32px" height="32px" viewBox="0 0 32 32" version="1.1" xmlns="http://www.w3.org/2000/svg" xmlns:xlink="http://www.w3.org/1999/xlink">
    <!-- Generator: Sketch 58 (84663) - https://sketch.com -->
    <title>Tools / Technology / share </title>
    <desc>Created with Sketch.</desc>
    <g id="Tools-/-Technology-/-share-" stroke="none" stroke-width="1" fill="none" fill-rule="evenodd">
        <path d="M23,20 C21.4838433,20.0076222 20.0530422,20.7027929 19.11,21.89 L11.8,17.32 C12.0664163,16.4601641 12.0664163,15.5398359 11.8,14.68 L19.11,10.11 C20.6419591,12.0069524 23.3188021,12.5222603 25.4455247,11.3296255 C27.5722473,10.1369907 28.5285758,7.58425359 27.7089532,5.28783344 C26.8893305,2.99141328 24.5328055,1.62107726 22.1315539,2.04453617 C19.7303023,2.46799508 17.9846661,4.56174414 18,7 C18.0047209,7.44717887 18.0720413,7.89149352 18.2,8.32 L10.89,12.89 C9.56725116,11.224831 7.3359479,10.5785512 5.32801231,11.2790133 C3.32007673,11.9794754 1.97491379,13.8733942 1.97491379,16 C1.97491379,18.1266058 3.32007673,20.0205246 5.32801231,20.7209867 C7.3359479,21.4214488 9.56725116,20.775169 10.89,19.11 L18.2,23.68 C18.0720413,24.1085065 18.0047209,24.5528211 18,25 C18,27.7614237 20.2385763,30 23,30 C25.7614237,30 28,27.7614237 28,25 C28,22.2385763 25.7614237,20 23,20 Z M23,4 C24.6568542,4 26,5.34314575 26,7 C26,8.65685425 24.6568542,10 23,10 C21.3431458,10 20,8.65685425 20,7 C20,5.34314575 21.3431458,4 23,4 Z M7,19 C5.34314575,19 4,17.6568542 4,16 C4,14.3431458 5.34314575,13 7,13 C8.65685425,13 10,14.3431458 10,16 C10,17.6568542 8.65685425,19 7,19 L7,19 Z M23,28 C21.3431458,28 20,26.6568542 20,25 C20,23.3431458 21.3431458,22 23,22 C24.6568542,22 26,23.3431458 26,25 C26,26.6568542 24.6568542,28 23,28 L23,28 Z" id="Fill" fill="#0E141A"></path>
    </g>
</svg>