<?xml version="1.0" encoding="UTF-8"?>
<svg width="32px" height="32px" viewBox="0 0 32 32" version="1.1" xmlns="http://www.w3.org/2000/svg" xmlns:xlink="http://www.w3.org/1999/xlink">
    <!-- Generator: Sketch 58 (84663) - https://sketch.com -->
    <title>Tools / Technology / tablet--landscape </title>
    <desc>Created with Sketch.</desc>
    <g id="Tools-/-Technology-/-tablet--landscape-" stroke="none" stroke-width="1" fill="none" fill-rule="evenodd">
        <path d="M24,13 L26,13 L26,19 L24,19 L24,13 Z M30,7 L30,25 C29.9988975,26.1041125 29.1041125,26.9988975 28,27 L4,27 C2.89588748,26.9988975 2.00110246,26.1041125 2,25 L2,7 C2.00110246,5.89588748 2.89588748,5.00110246 4,5 L28,5 C29.1038844,5.00165211 29.9983479,5.89611555 30,7 Z M4,25 L28,25 L28,7 L4,7 L4,25 Z" id="Fill" fill="#0E141A"></path>
    </g>
</svg>