<?xml version="1.0" encoding="UTF-8"?>
<svg width="32px" height="32px" viewBox="0 0 32 32" version="1.1" xmlns="http://www.w3.org/2000/svg" xmlns:xlink="http://www.w3.org/1999/xlink">
    <!-- Generator: Sketch 58 (84663) - https://sketch.com -->
    <title>Planning / Time / event </title>
    <desc>Created with Sketch.</desc>
    <g id="Planning-/-Time-/-event-" stroke="none" stroke-width="1" fill="none" fill-rule="evenodd">
        <path d="M28,6 C28,4.8954305 27.1045695,4 26,4 L22,4 L22,2 L20,2 L20,4 L12,4 L12,2 L10,2 L10,4 L6,4 C4.8954305,4 4,4.8954305 4,6 L4,26 C4,27.1045695 4.8954305,28 6,28 L10,28 L10,26 L6,26 L6,6 L10,6 L10,8 L12,8 L12,6 L20,6 L20,8 L22,8 L22,6 L26,6 L26,12 L28,12 L28,6 Z M21,15 L23.55,19.94 L29,20.73 L25,24.57 L25.99,30 L21.11,27.44 L16,30 L17,24.57 L13,20.73 L18.6,19.94 L21,15 Z" id="Fill" fill="#0E141A"></path>
    </g>
</svg>