<?xml version="1.0" encoding="UTF-8"?>
<svg width="32px" height="32px" viewBox="0 0 32 32" version="1.1" xmlns="http://www.w3.org/2000/svg" xmlns:xlink="http://www.w3.org/1999/xlink">
    <!-- Generator: Sketch 58 (84663) - https://sketch.com -->
    <title>Actions / Formatting / brightness-contrast </title>
    <desc>Created with Sketch.</desc>
    <g id="Actions-/-Formatting-/-brightness-contrast-" stroke="none" stroke-width="1" fill="none" fill-rule="evenodd">
        <path d="M15,2 L17,2 L17,5 L15,5 L15,2 Z M27,15 L30,15 L30,17 L27,17 L27,15 Z M15,27 L17,27 L17,30 L15,30 L15,27 Z M2,15 L5,15 L5,17 L2,17 L2,15 Z M5.45,6.883 L6.864,5.47 L8.986,7.59 L7.57,9.004 L5.45,6.883 Z M23,7.581 L25.12,5.46 L26.534,6.874 L24.413,8.996 L23,7.581 Z M23.002,24.416 L24.416,23.002 L26.538,25.124 L25.124,26.538 L23.002,24.416 Z M5.47,25.13 L7.59,23 L9,24.42 L6.88,26.54 L5.47,25.13 L5.47,25.13 Z M16,8 C11.581722,8 8,11.581722 8,16 C8,20.418278 11.581722,24 16,24 C20.418278,24 24,20.418278 24,16 C24,11.581722 20.418278,8 16,8 L16,8 Z M16,22 C12.6862915,22 10,19.3137085 10,16 C10,12.6862915 12.6862915,10 16,10 L16,22 Z" id="Fill" fill="#0E141A"></path>
    </g>
</svg>