<?xml version="1.0" encoding="UTF-8"?>
<svg width="32px" height="32px" viewBox="0 0 32 32" version="1.1" xmlns="http://www.w3.org/2000/svg" xmlns:xlink="http://www.w3.org/1999/xlink">
    <!-- Generator: Sketch 58 (84663) - https://sketch.com -->
    <title>Actions / Formatting / no-image </title>
    <desc>Created with Sketch.</desc>
    <g id="Actions-/-Formatting-/-no-image-" stroke="none" stroke-width="1" fill="none" fill-rule="evenodd">
        <path d="M30,3.414 L28.586,2 L2,28.586 L3.414,30 L5.414,28 L26,28 C27.1038844,27.9983479 27.9983479,27.1038844 28,26 L28,5.414 L30,3.414 Z M26,26 L7.414,26 L15.207,18.207 L17.586,20.586 C18.3669997,21.3667639 19.6330003,21.3667639 20.414,20.586 L22,19 L26,22.997 L26,26 Z M26,20.168 L23.414,17.582 C22.6330003,16.8012361 21.3669997,16.8012361 20.586,17.582 L19,19.168 L16.623,16.791 L26,7.414 L26,20.168 Z M6,22 L6,19 L11,14.003 L12.373,15.377 L13.789,13.961 L12.414,12.586 C11.6330003,11.8052361 10.3669997,11.8052361 9.586,12.586 L6,16.172 L6,6 L22,6 L22,4 L6,4 C4.89588748,4.00110246 4.00110246,4.89588748 4,6 L4,22 L6,22 Z" id="Fill" fill="#0E141A"></path>
    </g>
</svg>