<?xml version="1.0" encoding="UTF-8"?>
<svg width="32px" height="32px" viewBox="0 0 32 32" version="1.1" xmlns="http://www.w3.org/2000/svg" xmlns:xlink="http://www.w3.org/1999/xlink">
    <!-- Generator: Sketch 58 (84663) - https://sketch.com -->
    <title>Actions / Formatting / text--bold </title>
    <desc>Created with Sketch.</desc>
    <g id="Actions-/-Formatting-/-text--bold-" stroke="none" stroke-width="1" fill="none" fill-rule="evenodd">
        <path d="M18.25,25 L9,25 L9,7 L17.5,7 C19.5462622,7 21.4059964,8.18915766 22.2648607,10.0464517 C23.123725,11.9037458 22.8251984,14.0908213 21.5,15.65 C23.2372186,17.0393242 23.9103053,19.3726533 23.1799655,21.4737848 C22.4496257,23.5749163 20.4744098,24.9877125 18.25,25 L18.25,25 Z M12,22 L18.23,22 C19.0338476,22 19.7766334,21.5711525 20.1785572,20.875 C20.580481,20.1788476 20.580481,19.3211524 20.1785572,18.625 C19.7766334,17.9288475 19.0338476,17.5 18.23,17.5 L12,17.5 L12,22 Z M12,14.5 L17.5,14.5 C18.3038476,14.5 19.0466334,14.0711525 19.4485572,13.375 C19.850481,12.6788476 19.850481,11.8211524 19.4485572,11.125 C19.0466334,10.4288475 18.3038476,10 17.5,10 L12,10 L12,14.5 Z" id="Fill" fill="#0E141A"></path>
    </g>
</svg>