<?xml version="1.0" encoding="UTF-8"?>
<svg width="32px" height="32px" viewBox="0 0 32 32" version="1.1" xmlns="http://www.w3.org/2000/svg" xmlns:xlink="http://www.w3.org/1999/xlink">
    <!-- Generator: Sketch 58 (84663) - https://sketch.com -->
    <title>Actions / Formatting / text--creation </title>
    <desc>Created with Sketch.</desc>
    <g id="Actions-/-Formatting-/-text--creation-" stroke="none" stroke-width="1" fill="none" fill-rule="evenodd">
        <path d="M27,22.14 L27,9.86 C28.8950024,9.37980192 30.1653033,7.60023891 30.0037666,5.65202686 C29.84223,3.7038148 28.2961852,2.15777004 26.3479731,1.99623339 C24.3997611,1.83469673 22.6201981,3.1049976 22.14,5 L9.86,5 C9.37980192,3.1049976 7.60023891,1.83469673 5.65202686,1.99623339 C3.7038148,2.15777004 2.15777004,3.7038148 1.99623339,5.65202686 C1.83469673,7.60023891 3.1049976,9.37980192 5,9.86 L5,22.14 C3.1049976,22.6201981 1.83469673,24.3997611 1.99623339,26.3479731 C2.15777004,28.2961852 3.7038148,29.84223 5.65202686,30.0037666 C7.60023891,30.1653033 9.37980192,28.8950024 9.86,27 L22.14,27 C22.6201981,28.8950024 24.3997611,30.1653033 26.3479731,30.0037666 C28.2961852,29.84223 29.84223,28.2961852 30.0037666,26.3479731 C30.1653033,24.3997611 28.8950024,22.6201981 27,22.14 Z M26,4 C27.1045695,4 28,4.8954305 28,6 C28,7.1045695 27.1045695,8 26,8 C24.8954305,8 24,7.1045695 24,6 C24,4.8954305 24.8954305,4 26,4 Z M4,6 C4,4.8954305 4.8954305,4 6,4 C7.1045695,4 8,4.8954305 8,6 C8,7.1045695 7.1045695,8 6,8 C4.8954305,8 4,7.1045695 4,6 L4,6 Z M6,28 C4.8954305,28 4,27.1045695 4,26 C4,24.8954305 4.8954305,24 6,24 C7.1045695,24 8,24.8954305 8,26 C8,27.1045695 7.1045695,28 6,28 Z M22.14,25 L9.86,25 C9.49438671,23.5994007 8.40059934,22.5056133 7,22.14 L7,9.86 C8.40059934,9.49438671 9.49438671,8.40059934 9.86,7 L22.14,7 C22.5056133,8.40059934 23.5994007,9.49438671 25,9.86 L25,22.14 C23.5994007,22.5056133 22.5056133,23.5994007 22.14,25 Z M26,28 C24.8954305,28 24,27.1045695 24,26 C24,24.8954305 24.8954305,24 26,24 C27.1045695,24 28,24.8954305 28,26 C28,27.1045695 27.1045695,28 26,28 Z M21,11 L11,11 L11,13 L15,13 L15,22 L17,22 L17,13 L21,13 L21,11 Z" id="Fill" fill="#0E141A"></path>
    </g>
</svg>