<?xml version="1.0" encoding="UTF-8"?>
<svg width="32px" height="32px" viewBox="0 0 32 32" version="1.1" xmlns="http://www.w3.org/2000/svg" xmlns:xlink="http://www.w3.org/1999/xlink">
    <!-- Generator: Sketch 58 (84663) - https://sketch.com -->
    <title>Enterprise / Research / bloch-sphere </title>
    <desc>Created with Sketch.</desc>
    <g id="Enterprise-/-Research-/-bloch-sphere-" stroke="none" stroke-width="1" fill="none" fill-rule="evenodd">
        <path d="M21.87,7.84 L20.13,6.84 L16,14 C14.8954305,14 14,14.8954305 14,16 C14,17.1045695 14.8954305,18 16,18 C17.1045695,18 18,17.1045695 18,16 C17.9993767,15.6487402 17.9062535,15.3038396 17.73,15 L21.87,7.84 Z M16,2 C8.2680135,2 2,8.2680135 2,16 C2,23.7319865 8.2680135,30 16,30 C23.7319865,30 30,23.7319865 30,16 C30,12.2869691 28.5250042,8.72601436 25.8994949,6.10050506 C23.2739856,3.47499577 19.7130309,2 16,2 Z M16,3.9999986 C20.9436683,4.00568866 25.3779223,7.04257706 27.17,11.65 C25.9806745,11.0552542 24.7469672,10.5537472 23.48,10.15 L22.48,11.92 C24.379845,12.4773262 26.1986119,13.280811 27.89,14.31 C28.0633333,15.43 28.0633333,16.57 27.89,17.69 C24.3038758,19.8597543 20.1914316,21.0045979 16,21.0000138 C11.8153591,21.0009429 7.71031451,19.8562338 4.13,17.69 C3.95666667,16.57 3.95666667,15.43 4.13,14.31 C7.41593194,12.3070022 11.1553906,11.1683078 15,10.9999986 L15,8.9999986 C11.4642008,9.13717791 7.99779948,10.0233769 4.83,11.6 C6.63811116,7.01223326 11.0687868,3.99762855 16,3.9999986 Z M16,28 C11.0563317,27.9943113 6.62207767,24.9574229 4.83,20.35 C8.29584566,22.0920045 12.1209968,22.9994933 16,23 C19.8790032,22.9994933 23.7041543,22.0920045 27.17,20.35 C25.3779223,24.9574229 20.9436683,27.9943113 16,28 L16,28 Z" id="Fill" fill="#0E141A"></path>
    </g>
</svg>