<?xml version="1.0" encoding="UTF-8"?>
<svg width="32px" height="32px" viewBox="0 0 32 32" version="1.1" xmlns="http://www.w3.org/2000/svg" xmlns:xlink="http://www.w3.org/1999/xlink">
    <!-- Generator: Sketch 58 (84663) - https://sketch.com -->
    <title>Enterprise / Research / T--alt </title>
    <desc>Created with Sketch.</desc>
    <g id="Enterprise-/-Research-/-T--alt-" stroke="none" stroke-width="1" fill="none" fill-rule="evenodd">
        <path d="M8,11 L11,11 L11,23 L13,23 L13,11 L16,11 L16,9 L8,9 L8,11 Z M24,9 L22,9 L22,7 L20,7 L20,9 L18,9 L18,11 L20,11 L20,17 L21,18 L22,17 L22,11 L24,11 L24,9 Z" id="Fill" fill="#0E141A"></path>
    </g>
</svg>