<?xml version="1.0" encoding="UTF-8"?>
<svg width="32px" height="32px" viewBox="0 0 32 32" version="1.1" xmlns="http://www.w3.org/2000/svg" xmlns:xlink="http://www.w3.org/1999/xlink">
    <!-- Generator: Sketch 58 (84663) - https://sketch.com -->
    <title>Enterprise / Research / U3 </title>
    <desc>Created with Sketch.</desc>
    <g id="Enterprise-/-Research-/-U3-" stroke="none" stroke-width="1" fill="none" fill-rule="evenodd">
        <path d="M13,23 L9,23 C7.8954305,23 7,22.1045695 7,21 L7,9 L9,9 L9,21 L13,21 L13,9 L15,9 L15,21 C15,22.1045695 14.1045695,23 13,23 Z M23,9 L17,9 L17,11 L23,11 L23,15 L18,15 L18,17 L23,17 L23,21 L17,21 L17,23 L23,23 C24.1045695,23 25,22.1045695 25,21 L25,11 C25,9.8954305 24.1045695,9 23,9 Z" id="Fill" fill="#0E141A"></path>
    </g>
</svg>