<?xml version="1.0" encoding="UTF-8"?>
<svg width="32px" height="32px" viewBox="0 0 32 32" version="1.1" xmlns="http://www.w3.org/2000/svg" xmlns:xlink="http://www.w3.org/1999/xlink">
    <!-- Generator: Sketch 58 (84663) - https://sketch.com -->
    <title>Organization / File / category--and </title>
    <desc>Created with Sketch.</desc>
    <g id="Organization-/-File-/-category--and-" stroke="none" stroke-width="1" fill="none" fill-rule="evenodd">
        <path d="M4,30 L4,26 L15,26 L15,30 L17,30 L17,26 L28,26 L28,30 L30,30 L30,26 C30,24.8954305 29.1045695,24 28,24 L17,24 L17,19 L15,19 L15,24 L4,24 C2.8954305,24 2,24.8954305 2,26 L2,30 L4,30 Z M20.695,13.986 C21.3857816,12.7592743 21.8119328,11.4014496 21.946,10 L23,10 L23,8 L20,8 L20,9 C19.9784308,10.121207 19.753448,11.2291794 19.336,12.27 L16.65,8.883 C17.5989667,8.34166285 18.3501552,7.51129131 18.794,6.513 C19.1269293,5.6277043 19.0579339,4.641326 18.605,3.811 C18.1422283,2.94382611 17.3248888,2.32105653 16.366,2.105 C14.6208421,1.59599073 12.7787297,2.52053739 12.144,4.224 C11.639,5.776 12.584,7.34 13.405,8.332 C11.6962547,9.29798085 10.7624928,11.2196359 11.059,13.16 C11.3626254,15.3453616 13.2207481,16.978876 15.427,17 L15.433,17 C16.8886037,17.0424634 18.3066614,16.5343052 19.404,15.577 L20.532,17 L23.084,17 L20.695,13.986 Z M14.047,4.84 C14.2612438,4.28388638 14.8210856,3.93987236 15.414,4 C15.589259,4.00033182 15.7639589,4.01978018 15.935,4.058 C16.3254601,4.15068921 16.6574816,4.40625841 16.847,4.76 C17.0242188,5.07913595 17.0530786,5.45979351 16.926,5.802 C16.5510481,6.49992339 15.9612573,7.05850649 15.244,7.395 C14.584,6.682 13.809,5.573 14.047,4.841 L14.047,4.84 Z M15.432,15 L15.428,15 C14.2048358,14.9832789 13.182599,14.0644624 13.036,12.85 C12.8589301,11.5424738 13.6102284,10.2864359 14.846,9.824 L18.158,14.003 C17.4122714,14.6750465 16.4353502,15.032343 15.432,15 L15.432,15 Z" id="Fill" fill="#0E141A"></path>
    </g>
</svg>