<?xml version="1.0" encoding="UTF-8"?>
<svg width="32px" height="32px" viewBox="0 0 32 32" version="1.1" xmlns="http://www.w3.org/2000/svg" xmlns:xlink="http://www.w3.org/1999/xlink">
    <!-- Generator: Sketch 58 (84663) - https://sketch.com -->
    <title>Organization / File / closed-caption--alt </title>
    <desc>Created with Sketch.</desc>
    <g id="Organization-/-File-/-closed-caption--alt-" stroke="none" stroke-width="1" fill="none" fill-rule="evenodd">
        <path d="M19,17 L25,17 L25,19 L19,19 L19,17 Z M11,17 L17,17 L17,19 L11,19 L11,17 Z M6,17 L9,17 L9,19 L6,19 L6,17 Z M22,13 L26,13 L26,15 L22,15 L22,13 Z M13,13 L20,13 L20,15 L13,15 L13,13 Z M6,13 L11,13 L11,15 L6,15 L6,13 Z M17.736,29.9999999 L15.9999999,28.9999999 L19.9999999,21.9999999 L25.9999999,21.9999999 C26.5306772,22.0007978 27.0398487,21.7903403 27.4150945,21.4150945 C27.7903403,21.0398487 28.0007978,20.5306772 27.9999999,19.9999999 L27.9999999,7.99999987 C28.0007978,7.46932284 27.7903403,6.96015134 27.4150945,6.5849055 C27.0398487,6.20965966 26.5306772,5.99920219 25.9999999,5.99999987 L5.99999987,5.99999987 C5.46932284,5.99920219 4.96015134,6.20965966 4.5849055,6.5849055 C4.20965966,6.96015134 3.99920219,7.46932284 3.99999987,7.99999987 L3.99999987,19.9999999 C3.99920219,20.5306772 4.20965966,21.0398487 4.5849055,21.4150945 C4.96015134,21.7903403 5.46932284,22.0007978 5.99999987,21.9999999 L14.9999999,21.9999999 L14.9999999,23.9999999 L5.99999987,23.9999999 C3.790861,23.9999999 1.99999987,22.209139 1.99999987,19.9999999 L1.99999987,7.99999987 C1.99999987,6.93905272 2.42107682,5.9214829 3.17127986,5.17127986 C3.9214829,4.42107682 4.93905272,3.99973466 5.99999987,3.99999987 L25.9999999,3.99999987 C27.0609473,3.99973466 28.0785171,4.42107682 28.8287201,5.17127986 C29.5789232,5.9214829 29.9999999,6.93905272 29.9999999,7.99999987 L29.9999999,19.9999999 C29.9999999,22.209139 28.209139,23.9999999 25.9999999,23.9999999 L21.165,23.9999999 L17.736,29.9999999 Z" id="Fill" fill="#0E141A"></path>
    </g>
</svg>