<?xml version="1.0" encoding="UTF-8"?>
<svg width="32px" height="32px" viewBox="0 0 32 32" version="1.1" xmlns="http://www.w3.org/2000/svg" xmlns:xlink="http://www.w3.org/1999/xlink">
    <!-- Generator: Sketch 58 (84663) - https://sketch.com -->
    <title>Organization / File / copy--file </title>
    <desc>Created with Sketch.</desc>
    <g id="Organization-/-File-/-copy--file-" stroke="none" stroke-width="1" fill="none" fill-rule="evenodd">
        <path d="M27.435,14.699 L21.377,8.578 C21.0124582,8.20965972 20.5162302,8.00166859 19.998,8 L12,8 C10.8958875,8.00110246 10.0011025,8.89588748 10,10 L10,29 C10.0011025,30.1041125 10.8958875,30.9988975 12,31 L26,31 C27.1041125,30.9988975 27.9988975,30.1041125 28,29 L28,16.077 C27.9986027,15.5615567 27.7958525,15.0670615 27.435,14.699 Z M20,10.03 L25.924,16 L20,16 L20,10.03 Z M12,29 L12,10 L18,10 L18,16 C18.0011025,17.1041125 18.8958875,17.9988975 20,18 L26,18 L26.001,29 L12,29 Z M6,18 L4,18 L4,4 C4.00110246,2.89588748 4.89588748,2.00110246 6,2 L20,2 L20,4 L6,4 L6,18 Z" id="Fill" fill="#0E141A"></path>
    </g>
</svg>