<?xml version="1.0" encoding="UTF-8"?>
<svg width="32px" height="32px" viewBox="0 0 32 32" version="1.1" xmlns="http://www.w3.org/2000/svg" xmlns:xlink="http://www.w3.org/1999/xlink">
    <!-- Generator: Sketch 58 (84663) - https://sketch.com -->
    <title>Organization / File / CSV </title>
    <desc>Created with Sketch.</desc>
    <g id="Organization-/-File-/-CSV-" stroke="none" stroke-width="1" fill="none" fill-rule="evenodd">
        <path d="M28,9 L26,22 L24,9 L22,9 L24.516,23 L27.484,23 L30,9 L28,9 Z M18,23 L12,23 L12,21 L18,21 L18,17 L14,17 C12.8958875,16.9988975 12.0011025,16.1041125 12,15 L12,11 C12.0011025,9.89588748 12.8958875,9.00110246 14,9 L20,9 L20,11 L14,11 L14,15 L18,15 C19.1041125,15.0011025 19.9988975,15.8958875 20,17 L20,21 C19.9988975,22.1041125 19.1041125,22.9988975 18,23 L18,23 Z M10,23 L4,23 C2.89588748,22.9988975 2.00110246,22.1041125 2,21 L2,11 C2.00110246,9.89588748 2.89588748,9.00110246 4,9 L10,9 L10,11 L4,11 L4,21 L10,21 L10,23 Z" id="Fill" fill="#0E141A"></path>
    </g>
</svg>