<?xml version="1.0" encoding="UTF-8"?>
<svg width="32px" height="32px" viewBox="0 0 32 32" version="1.1" xmlns="http://www.w3.org/2000/svg" xmlns:xlink="http://www.w3.org/1999/xlink">
    <!-- Generator: Sketch 58 (84663) - https://sketch.com -->
    <title>Organization / File / document--tasks </title>
    <desc>Created with Sketch.</desc>
    <g id="Organization-/-File-/-document--tasks-" stroke="none" stroke-width="1" fill="none" fill-rule="evenodd">
        <path d="M25.7,9.3 L18.7,2.3 C18.5217438,2.10247546 18.2659703,1.99285825 18,2 L8,2 C6.8954305,2 6,2.8954305 6,4 L6,28 C6,29.1045695 6.8954305,30 8,30 L24,30 C25.1045695,30 26,29.1045695 26,28 L26,10 C26.0071418,9.73402968 25.8975245,9.47825619 25.7,9.3 L25.7,9.3 Z M18,4.4 L23.6,10 L18,10 L18,4.4 Z M24,28 L8,28 L8,4 L16,4 L16,10 C16,11.1045695 16.8954305,12 18,12 L24,12 L24,28 Z M14,22.18 L11.41,19.59 L10,21 L14,25 L22,17 L20.59,15.59 L14,22.18 Z" id="Fill" fill="#0E141A"></path>
    </g>
</svg>