<?xml version="1.0" encoding="UTF-8"?>
<svg width="32px" height="32px" viewBox="0 0 32 32" version="1.1" xmlns="http://www.w3.org/2000/svg" xmlns:xlink="http://www.w3.org/1999/xlink">
    <!-- Generator: Sketch 58 (84663) - https://sketch.com -->
    <title>Organization / File / folder--details </title>
    <desc>Created with Sketch.</desc>
    <g id="Organization-/-File-/-folder--details-" stroke="none" stroke-width="1" fill="none" fill-rule="evenodd">
        <path d="M16,20 L30,20 L30,22 L16,22 L16,20 Z M16,24 L30,24 L30,26 L16,26 L16,24 Z M16,28 L23,28 L23,30 L16,30 L16,28 Z M14,25.9999994 L4,25.9999994 L4,5.99999937 L11.17,5.99999937 L14.59,9.41 L15.17,9.99999937 L28,9.99999937 L28,17.9999994 L30,17.9999994 L30,9.99999937 C30,8.8954305 29.1045695,7.99999937 28,7.99999937 L16,7.99999937 L12.59,4.59 C12.2142036,4.2119606 11.7030446,3.99957762 11.17,3.99999937 L4,3.99999937 C2.8954305,3.99999937 2,4.8954305 2,5.99999937 L2,25.9999994 C2,27.1045695 2.8954305,27.9999994 4,27.9999994 L14,27.9999994 L14,25.9999994 Z" id="Fill" fill="#0E141A"></path>
    </g>
</svg>