<?xml version="1.0" encoding="UTF-8"?>
<svg width="32px" height="32px" viewBox="0 0 32 32" version="1.1" xmlns="http://www.w3.org/2000/svg" xmlns:xlink="http://www.w3.org/1999/xlink">
    <!-- Generator: Sketch 58 (84663) - https://sketch.com -->
    <title>Organization / File / JSON </title>
    <desc>Created with Sketch.</desc>
    <g id="Organization-/-File-/-JSON-" stroke="none" stroke-width="1" fill="none" fill-rule="evenodd">
        <path d="M31,11 L31,21 L29,21 L27,15 L27,21 L25,21 L25,11 L27,11 L29,17 L29,11 L31,11 Z M21.334,21 L18.667,21 C17.74696,20.9994491 17.001103,20.2540395 17,19.334 L17,12.667 C17.0005509,11.74696 17.7459605,11.001103 18.666,11 L21.333,11 C22.25304,11.0005509 22.998897,11.7459605 23,12.666 L23,19.333 C22.9994491,20.25304 22.2540395,20.998897 21.334,21 L21.334,21 Z M19,19 L21,19 L21,13 L19,13 L19,19 Z M13.334,21 L9,21 L9,19 L13,19 L13,17 L11,17 C9.89588748,16.9988975 9.00110246,16.1041125 9,15 L9,12.666 C9.00110204,11.7463505 9.74635047,11.001102 10.666,11 L15,11 L15,13 L11,13 L11,15 L13,15 C14.1041125,15.0011025 14.9988975,15.8958875 15,17 L15,19.333 C14.9994491,20.25304 14.2540395,20.998897 13.334,21 L13.334,21 Z M5.333,21 L2.667,21 C1.74695997,20.9994491 1.001103,20.2540395 1,19.334 L1,17 L3,17 L3,19 L5,19 L5,11 L7,11 L7,19.334 C6.998897,20.2540395 6.25304003,20.9994491 5.333,21 L5.333,21 Z" id="Fill" fill="#0E141A"></path>
    </g>
</svg>