<?xml version="1.0" encoding="UTF-8"?>
<svg width="32px" height="32px" viewBox="0 0 32 32" version="1.1" xmlns="http://www.w3.org/2000/svg" xmlns:xlink="http://www.w3.org/1999/xlink">
    <!-- Generator: Sketch 58 (84663) - https://sketch.com -->
    <title>Organization / File / no-ticket </title>
    <desc>Created with Sketch.</desc>
    <g id="Organization-/-File-/-no-ticket-" stroke="none" stroke-width="1" fill="none" fill-rule="evenodd">
        <path d="M28,6 L27.414,6 L30,3.414 L28.586,2 L2,28.586 L3.414,30 L7.414,26 L28,26 C29.1038844,25.9983479 29.9983479,25.1038844 30,24 L30,19 C30,18.4477153 29.5522847,18 29,18 C27.8954305,18 27,17.1045695 27,16 C27,14.8954305 27.8954305,14 29,14 C29.5522847,14 30,13.5522847 30,13 L30,8 C29.9988975,6.89588748 29.1041125,6.00110246 28,6 Z M28,12.127 C26.2338946,12.5829751 24.9999355,14.1759821 24.9999355,16 C24.9999355,17.8240179 26.2338946,19.4170249 28,19.873 L28,24 L21,24 L21,21 L19,21 L19,24 L9.414,24 L19,14.414 L19,19 L21,19 L21,12.414 L25.414,8 L28,8 L28,12.127 Z M4,12.127 L4,8 L19,8 L19,6 L4,6 C2.89588748,6.00110246 2.00110246,6.89588748 2,8 L2,13 C2,13.5522847 2.44771525,14 3,14 C4.1045695,14 5,14.8954305 5,16 C5,17.1045695 4.1045695,18 3,18 C2.44771525,18 2,18.4477153 2,19 L2,24 L4,24 L4,19.873 C5.76705524,19.417723 7.00200313,17.8242634 7.00200313,15.9995 C7.00200313,14.1747366 5.76705524,12.581277 4,12.126 L4,12.127 Z" id="Fill" fill="#0E141A"></path>
    </g>
</svg>