<?xml version="1.0" encoding="UTF-8"?>
<svg width="32px" height="32px" viewBox="0 0 32 32" version="1.1" xmlns="http://www.w3.org/2000/svg" xmlns:xlink="http://www.w3.org/1999/xlink">
    <!-- Generator: Sketch 58 (84663) - https://sketch.com -->
    <title>Organization / Alphanumeric / letter--Cc </title>
    <desc>Created with Sketch.</desc>
    <g id="Organization-/-Alphanumeric-/-letter--Cc-" stroke="none" stroke-width="1" fill="none" fill-rule="evenodd">
        <path d="M24,23 L19,23 C17.8954305,23 17,22.1045695 17,21 L17,15 C17,13.8954305 17.8954305,13 19,13 L24,13 L24,15 L19,15 L19,21 L24,21 L24,23 Z M15,23 L9,23 C7.8954305,23 7,22.1045695 7,21 L7,11 C7,9.8954305 7.8954305,9 9,9 L15,9 L15,11 L9,11 L9,21 L15,21 L15,23 Z" id="Fill" fill="#0E141A"></path>
    </g>
</svg>