<?xml version="1.0" encoding="UTF-8"?>
<svg width="32px" height="32px" viewBox="0 0 32 32" version="1.1" xmlns="http://www.w3.org/2000/svg" xmlns:xlink="http://www.w3.org/1999/xlink">
    <!-- Generator: Sketch 58 (84663) - https://sketch.com -->
    <title>Organization / Alphanumeric / letter--Hh </title>
    <desc>Created with Sketch.</desc>
    <g id="Organization-/-Alphanumeric-/-letter--Hh-" stroke="none" stroke-width="1" fill="none" fill-rule="evenodd">
        <path d="M13,9 L13,15 L9,15 L9,9 L7,9 L7,23 L9,23 L9,17 L13,17 L13,23 L15,23 L15,9 L13,9 Z M23,13 L19,13 L19,9 L17,9 L17,23 L19,23 L19,15 L23,15 L23,23 L25,23 L25,15 C25,13.8954305 24.1045695,13 23,13 Z" id="Fill" fill="#0E141A"></path>
    </g>
</svg>