<?xml version="1.0" encoding="UTF-8"?>
<svg width="32px" height="32px" viewBox="0 0 32 32" version="1.1" xmlns="http://www.w3.org/2000/svg" xmlns:xlink="http://www.w3.org/1999/xlink">
    <!-- Generator: Sketch 58 (84663) - https://sketch.com -->
    <title>Organization / Alphanumeric / number--6 </title>
    <desc>Created with Sketch.</desc>
    <g id="Organization-/-Alphanumeric-/-number--6-" stroke="none" stroke-width="1" fill="none" fill-rule="evenodd">
        <path d="M18,14 L14,14 L14,11 L19,11 L19,9 L14,9 C12.8954305,9 12,9.8954305 12,11 L12,21 C12,22.1045695 12.8954305,23 14,23 L18,23 C19.1045695,23 20,22.1045695 20,21 L20,16 C20,14.8954305 19.1045695,14 18,14 Z M14,21 L14,16 L18,16 L18,21 L14,21 Z" id="Fill" fill="#0E141A"></path>
    </g>
</svg>