<?xml version="1.0" encoding="UTF-8"?>
<svg width="32px" height="32px" viewBox="0 0 32 32" version="1.1" xmlns="http://www.w3.org/2000/svg" xmlns:xlink="http://www.w3.org/1999/xlink">
    <!-- Generator: Sketch 58 (84663) - https://sketch.com -->
    <title>Organization / Alphanumeric / number--small--8 </title>
    <desc>Created with Sketch.</desc>
    <g id="Organization-/-Alphanumeric-/-number--small--8-" stroke="none" stroke-width="1" fill="none" fill-rule="evenodd">
        <path d="M17,11 L15,11 C13.8954305,11 13,11.8954305 13,13 L13,19 C13,20.1045695 13.8954305,21 15,21 L17,21 C18.1045695,21 19,20.1045695 19,19 L19,13 C19,11.8954305 18.1045695,11 17,11 Z M17,13 L17,15 L15,15 L15,13 L17,13 Z M15,19 L15,17 L17,17 L17,19 L15,19 Z" id="Fill" fill="#0E141A"></path>
    </g>
</svg>