<?xml version="1.0" encoding="UTF-8"?>
<svg width="32px" height="32px" viewBox="0 0 32 32" version="1.1" xmlns="http://www.w3.org/2000/svg" xmlns:xlink="http://www.w3.org/1999/xlink">
    <!-- Generator: Sketch 58 (84663) - https://sketch.com -->
    <title>Planning / Weather / cloud </title>
    <desc>Created with Sketch.</desc>
    <g id="Planning-/-Weather-/-cloud-" stroke="none" stroke-width="1" fill="none" fill-rule="evenodd">
        <path d="M16,6.99987865 C16.5070574,6.99987865 17.0128719,7.05014565 17.51,7.15 C20.7241963,7.76558474 23.2393503,10.2767779 23.86,13.49 L24.12,14.84 L25.47,15.08 C28.2977209,15.5663316 30.2764963,18.1446998 30.0148405,21.0019817 C29.7531846,23.8592637 27.3390198,26.0353479 24.47,26 L7.5,26 C4.63098023,26.0353479 2.21681539,23.8592637 1.95515954,21.0019817 C1.69350368,18.1446998 3.67227911,15.5663316 6.5,15.08 L7.84,14.84 L8.1,13.49 C8.82711534,9.70666598 12.1474854,6.97891891 16,6.99987865 L16,6.99987865 Z M16,4.9999965 C11.198948,4.99601078 7.07259643,8.40455348 6.17,13.12 C2.35295723,13.8110834 -0.307263161,17.2988118 0.035504445,21.1627375 C0.378272051,25.0266632 3.61090966,27.9916381 7.49,27.9999965 L24.49,27.9999965 C28.3690903,27.9916381 31.6017279,25.0266632 31.9444956,21.1627375 C32.2872632,17.2988118 29.6270428,13.8110834 25.81,13.12 C25.0393297,9.09693193 21.8930681,5.95067026 17.87,5.18 C17.253475,5.06299455 16.6275235,5.00274253 16,4.9999965 Z" id="Fill" fill="#0E141A"></path>
    </g>
</svg>