<?xml version="1.0" encoding="UTF-8"?>
<svg width="32px" height="32px" viewBox="0 0 32 32" version="1.1" xmlns="http://www.w3.org/2000/svg" xmlns:xlink="http://www.w3.org/1999/xlink">
    <!-- Generator: Sketch 58 (84663) - https://sketch.com -->
    <title>Planning / Travel / arrival </title>
    <desc>Created with Sketch.</desc>
    <g id="Planning-/-Travel-/-arrival-" stroke="none" stroke-width="1" fill="none" fill-rule="evenodd">
        <path d="M2,28 L30,28 L30,30 L2,30 L2,28 Z M17.21,5.23 L18.6,5.61 L19.6,16.9 L25.47,18.47 C26.4475108,18.700818 27.1022111,19.6208218 27,20.62 C26.8832215,21.3525879 26.3465616,21.9480061 25.63,22.14 C25.3020444,22.2246778 24.9579556,22.2246778 24.63,22.14 L5.93,17.14 C4.93168147,16.8668359 4.338775,15.8415089 4.6,14.84 L6.35,8.34 L7.79,8.72 L8.4,13.9 L14.4,15.52 L17.21,5.23 L17.21,5.23 Z M16.21,3.03 C15.879619,3.12752647 15.6226933,3.38823053 15.53,3.72 L13,13.07 L10.19,12.32 L9.69,7.79 C9.62764262,7.41749372 9.3607321,7.11190051 9,7 L5.87,6.14 C5.70638964,6.09486091 5.53361036,6.09486091 5.37,6.14 C5.04206859,6.23564666 4.78564666,6.49206859 4.69,6.82 L2.69,14.31 C2.42440011,15.3019235 2.56391193,16.3587395 3.07781789,17.2477593 C3.59172386,18.1367791 4.43788698,18.7851088 5.43,19.05 L24.14,24.05 C25.1921619,24.34639 26.3205962,24.1839921 27.2464806,23.602933 C28.172365,23.0218739 28.8093339,22.076354 29,21 C29.2744992,18.9769676 27.9814361,17.0718545 26,16.58 L21.48,15.37 L20.53,4.71 C20.4846405,4.30684746 20.2002013,3.97105123 19.81,3.86 L16.73,3 C16.5657178,2.96012944 16.3942822,2.96012944 16.23,3 L16.21,3.03 Z" id="Fill" fill="#0E141A"></path>
    </g>
</svg>