<?xml version="1.0" encoding="UTF-8"?>
<svg width="32px" height="32px" viewBox="0 0 32 32" version="1.1" xmlns="http://www.w3.org/2000/svg" xmlns:xlink="http://www.w3.org/1999/xlink">
    <!-- Generator: Sketch 58 (84663) - https://sketch.com -->
    <title>Planning / Travel / earth--europe-africa--filled </title>
    <desc>Created with Sketch.</desc>
    <g id="Planning-/-Travel-/-earth--europe-africa--filled-" stroke="none" stroke-width="1" fill="none" fill-rule="evenodd">
        <path d="M16,2 C8.2680135,2 2,8.2680135 2,16 C2,23.7319865 8.2680135,30 16,30 C23.7319865,30 30,23.7319865 30,16 C29.9911827,8.27166868 23.7283313,2.00881727 16,2 Z M4,16 C4.00323505,12.141723 5.86434916,8.52111159 9,6.273 L9,9 C9,9.55228475 9.44771525,10 10,10 L13.382,10 C13.7606657,9.99979778 14.1067365,9.78572941 14.276,9.447 L15,8 L19,8 L19,14 L13.236,14 C13.0808727,13.9998553 12.9278389,14.0358028 12.789,14.105 L9.553,15.724 C9.21427059,15.8932635 9.00020222,16.2393343 9,16.618 L9,20.323 C8.99984978,20.7321919 9.2490109,21.1001898 9.629,21.252 L14,23 L14.824,27.94 C8.68596448,27.3285545 4.00812482,22.1684098 4,16 Z M22,26.376 L22,23 L23.755,20.368 C23.911067,20.1335745 23.9611633,19.8442508 23.893,19.571 L23,16 L23,13 L27.605,13 C28.9829328,18.2136002 26.6830414,23.7021546 22,26.376 L22,26.376 Z" id="Fill" fill="#0E141A"></path>
    </g>
</svg>