<?xml version="1.0" encoding="UTF-8"?>
<svg width="32px" height="32px" viewBox="0 0 32 32" version="1.1" xmlns="http://www.w3.org/2000/svg" xmlns:xlink="http://www.w3.org/1999/xlink">
    <!-- Generator: Sketch 58 (84663) - https://sketch.com -->
    <title>Planning / Travel / service-desk </title>
    <desc>Created with Sketch.</desc>
    <g id="Planning-/-Travel-/-service-desk-" stroke="none" stroke-width="1" fill="none" fill-rule="evenodd">
        <path d="M28,24.005 L28,22.005 C27.9909376,15.7703039 23.2126175,10.5793106 17,10.055 L17,8.005 L20,8.005 L20,6.005 L12,6.005 L12,8.005 L15,8.005 L15,10.055 C8.78738251,10.5793106 4.00906235,15.7703039 4,22.005 L4,24.005 L2,24.005 L2,26.005 L30,26.005 L30,24.005 L28,24.005 Z M16,12.005 C20.749588,12.0115583 24.8416375,15.3526887 25.798,20.005 L6.202,20.005 C7.15836247,15.3526887 11.250412,12.0115583 16,12.005 Z M6,22.005 L26,22.005 L26,24.005 L6,24.005 L6,22.005 Z" id="Fill" fill="#0E141A"></path>
    </g>
</svg>