<?xml version="1.0" encoding="UTF-8"?>
<svg width="32px" height="32px" viewBox="0 0 32 32" version="1.1" xmlns="http://www.w3.org/2000/svg" xmlns:xlink="http://www.w3.org/1999/xlink">
    <!-- Generator: Sketch 58 (84663) - https://sketch.com -->
    <title>Organization / Data / chart--scatter </title>
    <desc>Created with Sketch.</desc>
    <g id="Organization-/-Data-/-chart--scatter-" stroke="none" stroke-width="1" fill="none" fill-rule="evenodd">
        <path d="M30,30 L4,30 C2.8954305,30 2,29.1045695 2,28 L2,2 L4,2 L4,28 L30,28 L30,30 Z M10,24 C11.1045695,24 12,23.1045695 12,22 C12,20.8954305 11.1045695,20 10,20 C8.8954305,20 8,20.8954305 8,22 C8,23.1045695 8.8954305,24 10,24 Z M14,17 C15.1045695,17 16,16.1045695 16,15 C16,13.8954305 15.1045695,13 14,13 C12.8954305,13 12,13.8954305 12,15 C12,16.1045695 12.8954305,17 14,17 Z M22,17 C23.1045695,17 24,16.1045695 24,15 C24,13.8954305 23.1045695,13 22,13 C20.8954305,13 20,13.8954305 20,15 C20,16.1045695 20.8954305,17 22,17 Z M26,8 C27.1045695,8 28,7.1045695 28,6 C28,4.8954305 27.1045695,4 26,4 C24.8954305,4 24,4.8954305 24,6 C24,7.1045695 24.8954305,8 26,8 Z M14,10 C15.1045695,10 16,9.1045695 16,8 C16,6.8954305 15.1045695,6 14,6 C12.8954305,6 12,6.8954305 12,8 C12,9.1045695 12.8954305,10 14,10 Z" id="Fill" fill="#0E141A"></path>
    </g>
</svg>