<?xml version="1.0" encoding="UTF-8"?>
<svg width="32px" height="32px" viewBox="0 0 32 32" version="1.1" xmlns="http://www.w3.org/2000/svg" xmlns:xlink="http://www.w3.org/1999/xlink">
    <!-- Generator: Sketch 58 (84663) - https://sketch.com -->
    <title>Organization / Data / data-vis--3 </title>
    <desc>Created with Sketch.</desc>
    <g id="Organization-/-Data-/-data-vis--3-" stroke="none" stroke-width="1" fill="none" fill-rule="evenodd">
        <path d="M28,3 C26.7323539,3.00256757 25.604004,3.80395243 25.184,5 L21.858,5 C21.4104737,3.23437591 19.8214577,1.9978732 18,1.9978732 C16.1785423,1.9978732 14.5895263,3.23437591 14.142,5 L9.858,5 C9.374368,3.11268807 7.59901724,1.85017282 5.65753144,2.012897 C3.71604565,2.17562118 2.17562118,3.71604565 2.012897,5.65753144 C1.85017282,7.59901724 3.11268807,9.374368 5,9.858 L5,14.142 C3.23437591,14.5895263 1.9978732,16.1785423 1.9978732,18 C1.9978732,19.8214577 3.23437591,21.4104737 5,21.858 L5,25.184 C3.62245331,25.6710363 2.79612791,27.0796662 3.04320432,28.5197331 C3.29028073,29.9597999 4.5388911,31.0124271 6,31.0124271 C7.4611089,31.0124271 8.70971927,29.9597999 8.95679568,28.5197331 C9.20387209,27.0796662 8.37754669,25.6710363 7,25.184 L7,21.858 C7.62245337,21.696641 8.196513,21.3867929 8.673,20.955 L12.037,22.637 C12.017221,22.757125 12.0048642,22.8783548 12,23 C11.9943375,24.4328103 12.9988141,25.6712829 14.4019404,25.9614797 C15.8050666,26.2516766 17.2184065,25.5132607 17.7815691,24.1957535 C18.3447317,22.8782462 17.9018133,21.3463811 16.7224467,20.5327029 C15.5430802,19.7190247 13.9537568,19.8487891 12.922,20.843 L9.774,19.269 C9.91830759,18.8612276 9.99465723,18.432521 10,18 C9.99458868,16.1811043 8.7615001,14.5953524 7,14.142 L7,9.858 C8.39986069,9.49306266 9.49306266,8.39986069 9.858,7 L14.142,7 C14.3913247,8.01788532 15.0361844,8.89436199 15.9337546,9.43530662 C16.8313247,9.97625126 17.9075261,10.137018 18.924,9.882 L20.735,13.052 C19.7621647,14.1753549 19.7422869,15.8368497 20.6879682,16.9831574 C21.6336496,18.1294651 23.2686386,18.4257272 24.5564118,17.6841244 C25.844185,16.9425216 26.4085592,15.3796902 25.8917418,13.9864083 C25.3749244,12.5931265 23.9278877,11.7763984 22.468,12.054 L20.689,8.94 C21.258153,8.42005227 21.6642331,7.74614692 21.858,7 L25.184,7 C25.695019,8.43458153 27.2012125,9.25728887 28.6844302,8.91199181 C30.1676478,8.56669474 31.1556084,7.16334162 30.9804746,5.65056511 C30.8053407,4.1377886 29.522878,2.99728195 28,3 Z M8,18 C8,19.1045695 7.1045695,20 6,20 C4.8954305,20 4,19.1045695 4,18 C4,16.8954305 4.8954305,16 6,16 C7.10411252,16.0011025 7.99889754,16.8958875 8,18 L8,18 Z M6,8 C4.8954305,8 4,7.1045695 4,6 C4,4.8954305 4.8954305,4 6,4 C7.1045695,4 8,4.8954305 8,6 C7.99889754,7.10411252 7.10411252,7.99889754 6,8 L6,8 Z M16,6 C16,4.8954305 16.8954305,4 18,4 C19.1045695,4 20,4.8954305 20,6 C20,7.1045695 19.1045695,8 18,8 C16.8958875,7.99889754 16.0011025,7.10411252 16,6 L16,6 Z" id="Fill" fill="#0E141A"></path>
    </g>
</svg>