<?xml version="1.0" encoding="UTF-8"?>
<svg width="32px" height="32px" viewBox="0 0 32 32" version="1.1" xmlns="http://www.w3.org/2000/svg" xmlns:xlink="http://www.w3.org/1999/xlink">
    <!-- Generator: Sketch 58 (84663) - https://sketch.com -->
    <title>Organization / Data / data--check </title>
    <desc>Created with Sketch.</desc>
    <g id="Organization-/-Data-/-data--check-" stroke="none" stroke-width="1" fill="none" fill-rule="evenodd">
        <path d="M23,27.18 L20.41,24.59 L19,26 L23,30 L30,23 L28.59,21.59 L23,27.18 Z M11,9 C11.5522847,9 12,8.55228475 12,8 C12,7.44771525 11.5522847,7 11,7 C10.4477153,7 10,7.44771525 10,8 C10,8.55228475 10.4477153,9 11,9 Z M11,17 C11.5522847,17 12,16.5522847 12,16 C12,15.4477153 11.5522847,15 11,15 C10.4477153,15 10,15.4477153 10,16 C10,16.5522847 10.4477153,17 11,17 Z M11,25 C11.5522847,25 12,24.5522847 12,24 C12,23.4477153 11.5522847,23 11,23 C10.4477153,23 10,23.4477153 10,24 C10,24.5522847 10.4477153,25 11,25 Z M24,3 L8,3 C6.8954305,3 6,3.8954305 6,5 L6,27 C6,28.1045695 6.8954305,29 8,29 L16,29 L16,27 L8,27 L8,21 L26,21 L26,5 C26,3.8954305 25.1045695,3 24,3 Z M24,19 L8,19 L8,13 L24,13 L24,19 Z M24,11 L8,11 L8,5 L24,5 L24,11 Z" id="Fill" fill="#0E141A"></path>
    </g>
</svg>