<?xml version="1.0" encoding="UTF-8"?>
<svg width="32px" height="32px" viewBox="0 0 32 32" version="1.1" xmlns="http://www.w3.org/2000/svg" xmlns:xlink="http://www.w3.org/1999/xlink">
    <!-- Generator: Sketch 58 (84663) - https://sketch.com -->
    <title>Organization / Data / parent-child </title>
    <desc>Created with Sketch.</desc>
    <g id="Organization-/-Data-/-parent-child-" stroke="none" stroke-width="1" fill="none" fill-rule="evenodd">
        <path d="M28,12 C29.1045695,12 30,11.1045695 30,10 L30,4 C30,2.8954305 29.1045695,2 28,2 L4,2 C2.8954305,2 2,2.8954305 2,4 L2,10 C2,11.1045695 2.8954305,12 4,12 L15,12 L15,16 L9,16 C7.8954305,16 7,16.8954305 7,18 L7,22 L4,22 C2.8954305,22 2,22.8954305 2,24 L2,28 C2,29.1045695 2.8954305,30 4,30 L12,30 C13.1045695,30 14,29.1045695 14,28 L14,24 C14,22.8954305 13.1045695,22 12,22 L9,22 L9,18 L23,18 L23,22 L20,22 C18.8954305,22 18,22.8954305 18,24 L18,28 C18,29.1045695 18.8954305,30 20,30 L28,30 C29.1045695,30 30,29.1045695 30,28 L30,24 C30,22.8954305 29.1045695,22 28,22 L25,22 L25,18 C25,16.8954305 24.1045695,16 23,16 L17,16 L17,12 L28,12 Z M12,28 L4,28 L4,24 L12,24 L12,28 Z M28,28 L20,28 L20,24 L28,24 L28,28 Z M4,4 L28,4 L28,10 L4,10 L4,4 Z" id="Fill" fill="#0E141A"></path>
    </g>
</svg>