<?xml version="1.0" encoding="UTF-8"?>
<svg width="32px" height="32px" viewBox="0 0 32 32" version="1.1" xmlns="http://www.w3.org/2000/svg" xmlns:xlink="http://www.w3.org/1999/xlink">
    <!-- Generator: Sketch 58 (84663) - https://sketch.com -->
    <title>Organization / Data / presentation-file </title>
    <desc>Created with Sketch.</desc>
    <g id="Organization-/-Data-/-presentation-file-" stroke="none" stroke-width="1" fill="none" fill-rule="evenodd">
        <path d="M15,10 L17,10 L17,18 L15,18 L15,10 Z M20,14 L22,14 L22,18 L20,18 L20,14 Z M10,12 L12,12 L12,18 L10,18 L10,12 Z M25,4 L17,4 L17,2 L15,2 L15,4 L7,4 C5.8954305,4 5,4.8954305 5,6 L5,20 C5,21.1045695 5.8954305,22 7,22 L15,22 L15,28 L11,28 L11,30 L21,30 L21,28 L17,28 L17,22 L25,22 C26.1045695,22 27,21.1045695 27,20 L27,6 C27,4.8954305 26.1045695,4 25,4 Z M25,20 L7,20 L7,6 L25,6 L25,20 Z" id="Fill" fill="#0E141A"></path>
    </g>
</svg>