<?xml version="1.0" encoding="UTF-8"?>
<svg width="32px" height="32px" viewBox="0 0 32 32" version="1.1" xmlns="http://www.w3.org/2000/svg" xmlns:xlink="http://www.w3.org/1999/xlink">
    <!-- Generator: Sketch 58 (84663) - https://sketch.com -->
    <title>Organization / Data / report--data </title>
    <desc>Created with Sketch.</desc>
    <g id="Organization-/-Data-/-report--data-" stroke="none" stroke-width="1" fill="none" fill-rule="evenodd">
        <path d="M15,20 L17,20 L17,24 L15,24 L15,20 Z M20,18 L22,18 L22,24 L20,24 L20,18 Z M10,14 L12,14 L12,24 L10,24 L10,14 Z M25,5 L22,5 L22,4 C22,2.8954305 21.1045695,2 20,2 L12,2 C10.8954305,2 10,2.8954305 10,4 L10,5 L7,5 C5.8954305,5 5,5.8954305 5,7 L5,28 C5,29.1045695 5.8954305,30 7,30 L25,30 C26.1045695,30 27,29.1045695 27,28 L27,7 C27,5.8954305 26.1045695,5 25,5 Z M12,4 L20,4 L20,8 L12,8 L12,4 Z M25,28 L7,28 L7,7 L10,7 L10,10 L22,10 L22,7 L25,7 L25,28 Z" id="Fill" fill="#0E141A"></path>
    </g>
</svg>