<?xml version="1.0" encoding="UTF-8"?>
<svg width="32px" height="32px" viewBox="0 0 32 32" version="1.1" xmlns="http://www.w3.org/2000/svg" xmlns:xlink="http://www.w3.org/1999/xlink">
    <!-- Generator: Sketch 58 (84663) - https://sketch.com -->
    <title>Organization / Data / type-pattern </title>
    <desc>Created with Sketch.</desc>
    <g id="Organization-/-Data-/-type-pattern-" stroke="none" stroke-width="1" fill="none" fill-rule="evenodd">
        <path d="M30,15 L17,15 L17,2 L15,2 L15,15 L2,15 L2,17 L15,17 L15,30 L17,30 L17,17 L30,17 L30,15 Z M25.586,20 L27,21.414 L23.414,25 L27,28.586 L25.586,30 L20.586,25 L25.586,20 Z M11,30.0000001 L3,30.0000001 C2.65355989,29.999815 2.33189634,29.8203322 2.14980547,29.5256057 C1.96771461,29.2308792 1.9511412,28.8629025 2.106,28.553 L6.106,20.553 C6.29370331,20.2376906 6.63354969,20.0444948 7.0005,20.0444948 C7.36745031,20.0444948 7.70729669,20.2376906 7.895,20.553 L11.895,28.553 C12.0499383,28.8630616 12.0332634,29.2312442 11.8509316,29.5260309 C11.6685998,29.8208177 11.346618,30.0001616 11,30.0000001 Z M4.618,28 L9.382,28 L7,23.236 L4.618,28 Z M28,12 L22,12 C20.8958875,11.9988975 20.0011025,11.1041125 20,10 L20,4 C20.0011025,2.89588748 20.8958875,2.00110246 22,2 L28,2 C29.1041125,2.00110246 29.9988975,2.89588748 30,4 L30,10 C29.9988975,11.1041125 29.1041125,11.9988975 28,12 L28,12 Z M22,4 L22,10 L28.001,10 L28,4 L22,4 Z M7,12 C4.23857625,12 2,9.76142375 2,7 C2,4.23857625 4.23857625,2 7,2 C9.76142375,2 12,4.23857625 12,7 C11.9966939,9.76005315 9.76005315,11.9966939 7,12 Z M7,4 C5.34314575,4 4,5.34314575 4,7 C4,8.65685425 5.34314575,10 7,10 C8.65685425,10 10,8.65685425 10,7 C9.99834631,5.34383121 8.65616879,4.00165369 7,4 Z" id="Fill" fill="#0E141A"></path>
    </g>
</svg>