<?xml version="1.0" encoding="UTF-8"?>
<svg width="32px" height="32px" viewBox="0 0 32 32" version="1.1" xmlns="http://www.w3.org/2000/svg" xmlns:xlink="http://www.w3.org/1999/xlink">
    <!-- Generator: Sketch 58 (84663) - https://sketch.com -->
    <title>Tools / Instruments / binoculars </title>
    <desc>Created with Sketch.</desc>
    <g id="Tools-/-Instruments-/-binoculars-" stroke="none" stroke-width="1" fill="none" fill-rule="evenodd">
        <path d="M28,8 L28,5 C28,4.44771525 27.5522847,4 27,4 L21,4 C20.4477153,4 20,4.44771525 20,5 L20,8 C18.8954305,8 18,8.8954305 18,10 L18,12 L14,12 L14,10 C14,8.8954305 13.1045695,8 12,8 L12,5 C12,4.44771525 11.5522847,4 11,4 L5,4 C4.44771525,4 4,4.44771525 4,5 L4,8 C2.8954305,8 2,8.8954305 2,10 L2,22 C2.00428692,22.7102221 2.38491093,23.3648954 3,23.72 L3,27 C3,27.5522847 3.44771525,28 4,28 L12,28 C12.5522847,28 13,27.5522847 13,27 L13,23.72 C13.6150891,23.3648954 13.9957131,22.7102221 14,22 L14,20 L18,20 L18,22 C18.0042869,22.7102221 18.3849109,23.3648954 19,23.72 L19,27 C19,27.5522847 19.4477153,28 20,28 L28,28 C28.5522847,28 29,27.5522847 29,27 L29,23.72 C29.6150891,23.3648954 29.9957131,22.7102221 30,22 L30,10 C30,8.8954305 29.1045695,8 28,8 Z M11,26 L5,26 L5,24 L11,24 L11,26 Z M12,22 L4,22 L4,10 L6,10 L6,6 L10,6 L10,10 L12,10 L12,22 Z M14,18 L14,14 L18,14 L18,18 L14,18 Z M27,26 L21,26 L21,24 L27,24 L27,26 Z M28,22 L20,22 L20,10 L22,10 L22,6 L26,6 L26,10 L28,10 L28,22 Z" id="Fill" fill="#0E141A"></path>
    </g>
</svg>