<?xml version="1.0" encoding="UTF-8"?>
<svg width="32px" height="32px" viewBox="0 0 32 32" version="1.1" xmlns="http://www.w3.org/2000/svg" xmlns:xlink="http://www.w3.org/1999/xlink">
    <!-- Generator: Sketch 58 (84663) - https://sketch.com -->
    <title>Actions / Operations / add-comment </title>
    <desc>Created with Sketch.</desc>
    <g id="Actions-/-Operations-/-add-comment-" stroke="none" stroke-width="1" fill="none" fill-rule="evenodd">
        <path d="M17.74,30 L16,29 L20,22 L26,22 C27.1045695,22 28,21.1045695 28,20 L28,8 C28,6.8954305 27.1045695,6 26,6 L6,6 C4.8954305,6 4,6.8954305 4,8 L4,20 C4,21.1045695 4.8954305,22 6,22 L15,22 L15,24 L6,24 C3.790861,24 2,22.209139 2,20 L2,8 C2,5.790861 3.790861,4 6,4 L26,4 C28.209139,4 30,5.790861 30,8 L30,20 C30,22.209139 28.209139,24 26,24 L21.16,24 L17.74,30 Z M17,9 L15,9 L15,13 L11,13 L11,15 L15,15 L15,19 L17,19 L17,15 L21,15 L21,13 L17,13 L17,9 Z" id="Fill" fill="#0E141A"></path>
    </g>
</svg>