<?xml version="1.0" encoding="UTF-8"?>
<svg width="32px" height="32px" viewBox="0 0 32 32" version="1.1" xmlns="http://www.w3.org/2000/svg" xmlns:xlink="http://www.w3.org/1999/xlink">
    <!-- Generator: Sketch 58 (84663) - https://sketch.com -->
    <title>Actions / Operations / compare </title>
    <desc>Created with Sketch.</desc>
    <g id="Actions-/-Operations-/-compare-" stroke="none" stroke-width="1" fill="none" fill-rule="evenodd">
        <path d="M28,6 L18,6 L18,4 C18,2.8954305 17.1045695,2 16,2 L4,2 C2.8954305,2 2,2.8954305 2,4 L2,24 C2,25.1045695 2.8954305,26 4,26 L14,26 L14,28 C14,29.1045695 14.8954305,30 16,30 L28,30 C29.1045695,30 30,29.1045695 30,28 L30,8 C30,6.8954305 29.1045695,6 28,6 Z M4,15 L10.17,15 L7.59,17.59 L9,19 L14,14 L9,9 L7.59,10.41 L10.17,13 L4,13 L4,4 L16,4 L16,24 L4,24 L4,15 Z M16,28 L16,26 C17.1045695,26 18,25.1045695 18,24 L18,8 L28,8 L28,17 L21.83,17 L24.41,14.41 L23,13 L18,18 L23,23 L24.41,21.59 L21.83,19 L28,19 L28,28 L16,28 Z" id="Fill" fill="#0E141A"></path>
    </g>
</svg>