<?xml version="1.0" encoding="UTF-8"?>
<svg width="32px" height="32px" viewBox="0 0 32 32" version="1.1" xmlns="http://www.w3.org/2000/svg" xmlns:xlink="http://www.w3.org/1999/xlink">
    <!-- Generator: Sketch 58 (84663) - https://sketch.com -->
    <title>Actions / Operations / drag--vertical </title>
    <desc>Created with Sketch.</desc>
    <g id="Actions-/-Operations-/-drag--vertical-" stroke="none" stroke-width="1" fill="none" fill-rule="evenodd">
        <path d="M4,20 L15,20 L15,26.17 L12.41,23.59 L11,25 L16,30 L21,25 L19.59,23.59 L17,26.17 L17,20 L28,20 L28,18 L4,18 L4,20 Z M11,7 L12.41,8.41 L15,5.83 L15,12 L4,12 L4,14 L28,14 L28,12 L17,12 L17,5.83 L19.59,8.41 L21,7 L16,2 L11,7 Z" id="Fill" fill="#0E141A"></path>
    </g>
</svg>