<?xml version="1.0" encoding="UTF-8"?>
<svg width="32px" height="32px" viewBox="0 0 32 32" version="1.1" xmlns="http://www.w3.org/2000/svg" xmlns:xlink="http://www.w3.org/1999/xlink">
    <!-- Generator: Sketch 58 (84663) - https://sketch.com -->
    <title>Actions / Operations / filter--edit </title>
    <desc>Created with Sketch.</desc>
    <g id="Actions-/-Operations-/-filter--edit-" stroke="none" stroke-width="1" fill="none" fill-rule="evenodd">
        <path d="M25.9999994,6 L3.99999937,6 L3.99999937,9.17 L11.41,16.59 L11.9999994,17.17 L11.9999994,26 L15.9999994,26 L15.9999994,24 L17.9999994,24 L17.9999994,26 C17.9999994,27.1045695 17.1045695,28 15.9999994,28 L11.9999994,28 C10.8954305,28 9.99999937,27.1045695 9.99999937,26 L9.99999937,18 L2.59,10.59 C2.2119606,10.2142036 1.99957762,9.70304458 1.99999937,9.17 L1.99999937,6 C1.99999937,4.8954305 2.8954305,4 3.99999937,4 L25.9999994,4 L25.9999994,6 Z M29.71,11.29 L26.71,8.29 C26.5222334,8.10068735 26.2666375,7.99420168 26,7.99420168 C25.7333625,7.99420168 25.4777666,8.10068735 25.29,8.29 L16,17.59 L16,22 L20.41,22 L29.71,12.71 C29.8993127,12.5222334 30.0057983,12.2666375 30.0057983,12 C30.0057983,11.7333625 29.8993127,11.4777666 29.71,11.29 Z M19.59,20 L18,20 L18,18.41 L23,13.41 L24.59,15 L19.59,20 Z M26,13.59 L24.41,12 L26,10.41 L27.59,12 L26,13.59 Z" id="Fill" fill="#0E141A"></path>
    </g>
</svg>