<?xml version="1.0" encoding="UTF-8"?>
<svg width="32px" height="32px" viewBox="0 0 32 32" version="1.1" xmlns="http://www.w3.org/2000/svg" xmlns:xlink="http://www.w3.org/1999/xlink">
    <!-- Generator: Sketch 58 (84663) - https://sketch.com -->
    <title>Actions / Operations / insert </title>
    <desc>Created with Sketch.</desc>
    <g id="Actions-/-Operations-/-insert-" stroke="none" stroke-width="1" fill="none" fill-rule="evenodd">
        <path d="M2,9 L11,9 L11,2 L2,2 L2,9 Z M4,4 L9,4 L9,7 L4,7 L4,4 Z M2,19 L11,19 L11,12 L2,12 L2,19 Z M4,14 L9,14 L9,17 L4,17 L4,14 Z M2,29 L11,29 L11,22 L2,22 L2,29 Z M4,24 L9,24 L9,27 L4,27 L4,24 Z M27,9 L18,9 L21.41,5.41 L20,4 L14,10 L20,16 L21.41,14.59 L18,11 L27,11 C27.5522847,11 28,11.4477153 28,12 L28,24 C28,24.5522847 27.5522847,25 27,25 L15,25 L15,27 L27,27 C28.6568542,27 30,25.6568542 30,24 L30,12 C30,10.3431458 28.6568542,9 27,9 Z" id="Fill" fill="#0E141A"></path>
    </g>
</svg>