<?xml version="1.0" encoding="UTF-8"?>
<svg width="32px" height="32px" viewBox="0 0 32 32" version="1.1" xmlns="http://www.w3.org/2000/svg" xmlns:xlink="http://www.w3.org/1999/xlink">
    <!-- Generator: Sketch 58 (84663) - https://sketch.com -->
    <title>Actions / Operations / launch </title>
    <desc>Created with Sketch.</desc>
    <g id="Actions-/-Operations-/-launch-" stroke="none" stroke-width="1" fill="none" fill-rule="evenodd">
        <path d="M26,28 L6,28 C4.8954305,28 4,27.1045695 4,26 L4,6 C4,4.8954305 4.8954305,4 6,4 L15,4 L15,6 L6,6 L6,26 L26,26 L26,17 L28,17 L28,26 C28,27.1045695 27.1045695,28 26,28 Z M21,2 L21,4 L26.59,4 L18,12.59 L19.41,14 L28,5.41 L28,11 L30,11 L30,2 L21,2 Z" id="Fill" fill="#0E141A"></path>
    </g>
</svg>