<?xml version="1.0" encoding="UTF-8"?>
<svg width="32px" height="32px" viewBox="0 0 32 32" version="1.1" xmlns="http://www.w3.org/2000/svg" xmlns:xlink="http://www.w3.org/1999/xlink">
    <!-- Generator: Sketch 58 (84663) - https://sketch.com -->
    <title>Actions / Operations / not-sent--filled </title>
    <desc>Created with Sketch.</desc>
    <g id="Actions-/-Operations-/-not-sent--filled-" stroke="none" stroke-width="1" fill="none" fill-rule="evenodd">
        <path d="M30,28.59 L3.41,2 L2,3.41 L10,11.41 L2.66,14.06 C2.27153862,14.2073443 2.01464771,14.5795333 2.01464771,14.995 C2.01464771,15.4104667 2.27153862,15.7826557 2.66,15.93 L11.25,19.36 L14.59,16 L16,17.41 L12.63,20.78 L16.07,29.37 C16.2216273,29.750721 16.5901962,30.0003967 17,30 C17.4136766,29.9915173 17.7794074,29.7291452 17.92,29.34 L20.6,22 L28.6,30 L30,28.59 Z M22.49,16.83 L25.94,7.34 C26.0715253,6.97539957 25.9805142,6.56763247 25.7064409,6.29355915 C25.4323675,6.01948582 25.0246004,5.92847472 24.66,6.06 L15.17,9.51 L22.49,16.83 Z" id="Fill" fill="#0E141A"></path>
    </g>
</svg>