<?xml version="1.0" encoding="UTF-8"?>
<svg width="32px" height="32px" viewBox="0 0 32 32" version="1.1" xmlns="http://www.w3.org/2000/svg" xmlns:xlink="http://www.w3.org/1999/xlink">
    <!-- Generator: Sketch 58 (84663) - https://sketch.com -->
    <title>Actions / Operations / package </title>
    <desc>Created with Sketch.</desc>
    <g id="Actions-/-Operations-/-package-" stroke="none" stroke-width="1" fill="none" fill-rule="evenodd">
        <path d="M26,30 L6,30 C4.8954305,30 4,29.1045695 4,28 L4,16 C4,14.8954305 4.8954305,14 6,14 L9,14 L9,16 L6,16 L6,28 L26,28 L26,16 L23,16 L23,14 L26,14 C27.1045695,14 28,14.8954305 28,16 L28,28 C28,29.1045695 27.1045695,30 26,30 Z M13,20 L19,20 L19,22 L13,22 L13,20 Z M20.59,8.59 L17,12.17 L17,2 L15,2 L15,12.17 L11.41,8.59 L10,10 L16,16 L22,10 L20.59,8.59 Z" id="Fill" fill="#0E141A"></path>
    </g>
</svg>