<?xml version="1.0" encoding="UTF-8"?>
<svg width="32px" height="32px" viewBox="0 0 32 32" version="1.1" xmlns="http://www.w3.org/2000/svg" xmlns:xlink="http://www.w3.org/1999/xlink">
    <!-- Generator: Sketch 58 (84663) - https://sketch.com -->
    <title>Actions / Operations / scan </title>
    <desc>Created with Sketch.</desc>
    <g id="Actions-/-Operations-/-scan-" stroke="none" stroke-width="1" fill="none" fill-rule="evenodd">
        <path d="M21,29 L5,29 C3.8954305,29 3,28.1045695 3,27 L3,5 C3,3.8954305 3.8954305,3 5,3 L21,3 L21,5 L5,5 L5,27 L21,27 L21,29 Z M15,9 L17,9 L17,23 L15,23 L15,9 Z M27,9 L29,9 L29,23 L27,23 L27,9 Z M21,9 L23,9 L23,23 L21,23 L21,9 Z" id="Fill" fill="#0E141A"></path>
    </g>
</svg>