<?xml version="1.0" encoding="UTF-8"?>
<svg width="32px" height="32px" viewBox="0 0 32 32" version="1.1" xmlns="http://www.w3.org/2000/svg" xmlns:xlink="http://www.w3.org/1999/xlink">
    <!-- Generator: Sketch 58 (84663) - https://sketch.com -->
    <title>Actions / Operations / search </title>
    <desc>Created with Sketch.</desc>
    <g id="Actions-/-Operations-/-search-" stroke="none" stroke-width="1" fill="none" fill-rule="evenodd">
        <path d="M30,28.59 L22.45,21 C26.1993296,16.4761604 25.731483,9.80439696 21.3874968,5.84808795 C17.0435106,1.89177894 10.3571849,2.04784109 6.20251298,6.20251298 C2.04784109,10.3571849 1.89177894,17.0435106 5.84808795,21.3874968 C9.80439696,25.731483 16.4761604,26.1993296 21,22.45 L28.59,30 L30,28.59 Z M5,14 C5,9.02943725 9.02943725,5 14,5 C18.9705627,5 23,9.02943725 23,14 C23,18.9705627 18.9705627,23 14,23 C9.02943725,23 5,18.9705627 5,14 Z" id="Fill" fill="#0E141A"></path>
    </g>
</svg>