<?xml version="1.0" encoding="UTF-8"?>
<svg width="32px" height="32px" viewBox="0 0 32 32" version="1.1" xmlns="http://www.w3.org/2000/svg" xmlns:xlink="http://www.w3.org/1999/xlink">
    <!-- Generator: Sketch 58 (84663) - https://sketch.com -->
    <title>Actions / Operations / send </title>
    <desc>Created with Sketch.</desc>
    <g id="Actions-/-Operations-/-send-" stroke="none" stroke-width="1" fill="none" fill-rule="evenodd">
        <path d="M27.45,15.11 L5.45,4.11 C5.09777681,3.93385073 4.67496547,3.98082977 4.37,4.23 C4.0791876,4.4737299 3.95137055,4.86105428 4.04,5.23 L7,16 L4,26.74 C3.91731432,27.0463299 3.98491096,27.3737228 4.18215874,27.622255 C4.37940651,27.8707872 4.68289631,28.0109632 5,28 C5.15654225,27.9990614 5.3106777,27.9613839 5.45,27.89 L27.45,16.89 C27.7839662,16.718904 27.9940395,16.3752429 27.9940395,16 C27.9940395,15.6247571 27.7839662,15.281096 27.45,15.11 Z M6.55,25.11 L8.76,17 L18,17 L18,15 L8.76,15 L6.55,6.89 L24.76,16 L6.55,25.11 Z" id="Fill" fill="#0E141A"></path>
    </g>
</svg>