<?xml version="1.0" encoding="UTF-8"?>
<svg width="32px" height="32px" viewBox="0 0 32 32" version="1.1" xmlns="http://www.w3.org/2000/svg" xmlns:xlink="http://www.w3.org/1999/xlink">
    <!-- Generator: Sketch 58 (84663) - https://sketch.com -->
    <title>Actions / Operations / send--alt--filled </title>
    <desc>Created with Sketch.</desc>
    <g id="Actions-/-Operations-/-send--alt--filled-" stroke="none" stroke-width="1" fill="none" fill-rule="evenodd">
        <path d="M27.71,4.29 C27.4344615,4.01575288 27.0249529,3.92605099 26.66,4.06 L4.66,12.06 C4.27153862,12.2073443 4.01464771,12.5795333 4.01464771,12.995 C4.01464771,13.4104667 4.27153862,13.7826557 4.66,13.93 L13.25,17.36 L19.59,11 L21,12.41 L14.63,18.78 L18.07,27.37 C18.2216273,27.750721 18.5901962,28.0003967 19,28.0000005 C19.4136766,27.9915173 19.7794074,27.7291452 19.92,27.34 L27.92,5.34 C28.0590729,4.97885083 27.9772785,4.5698789 27.71,4.29 Z" id="Fill" fill="#0E141A"></path>
    </g>
</svg>