<?xml version="1.0" encoding="UTF-8"?>
<svg width="32px" height="32px" viewBox="0 0 32 32" version="1.1" xmlns="http://www.w3.org/2000/svg" xmlns:xlink="http://www.w3.org/1999/xlink">
    <!-- Generator: Sketch 58 (84663) - https://sketch.com -->
    <title>Actions / Operations / shuffle </title>
    <desc>Created with Sketch.</desc>
    <g id="Actions-/-Operations-/-shuffle-" stroke="none" stroke-width="1" fill="none" fill-rule="evenodd">
        <path d="M22.59,19.41 L26.17,23 L19.55,23 L15.18,16 L19.55,9 L26.17,9 L22.59,12.59 L24,14 L30,8 L24,2 L22.59,3.41 L26.17,7 L19.55,7 C18.8625538,7.00206266 18.224345,7.35704268 17.86,7.94 L14,14.11 L10.14,7.94 C9.77565497,7.35704268 9.1374462,7.00206266 8.45,7 L2,7 L2,9 L8.45,9 L12.82,16 L8.45,23 L2,23 L2,25 L8.45,25 C9.1374462,24.9979373 9.77565497,24.6429573 10.14,24.06 L14,17.89 L17.86,24.06 C18.224345,24.6429573 18.8625538,24.9979373 19.55,25 L26.17,25 L22.59,28.59 L24,30 L30,24 L24,18 L22.59,19.41 Z" id="Fill" fill="#0E141A"></path>
    </g>
</svg>