<?xml version="1.0" encoding="UTF-8"?>
<svg width="32px" height="32px" viewBox="0 0 32 32" version="1.1" xmlns="http://www.w3.org/2000/svg" xmlns:xlink="http://www.w3.org/1999/xlink">
    <!-- Generator: Sketch 58 (84663) - https://sketch.com -->
    <title>Actions / Toggle / favorite--filled </title>
    <desc>Created with Sketch.</desc>
    <g id="Actions-/-Toggle-/-favorite--filled-" stroke="none" stroke-width="1" fill="none" fill-rule="evenodd">
        <path d="M22.45,3.99999731 C20.4412222,3.99829759 18.5164132,4.80570809 17.11,6.24 L16,7.36 L14.89,6.24 C13.4819478,4.80838099 11.5580199,4.00209482 9.55,4.00209482 C7.54198008,4.00209482 5.6180522,4.80838099 4.21,6.24 C1.25972688,9.24333177 1.25972688,14.0566682 4.21,17.06 L16,28.9999973 L27.79,17.06 C30.7402731,14.0566682 30.7402731,9.24333177 27.79,6.24 C26.382296,4.80761153 24.4583244,4.0005523 22.45,3.99999731 Z" id="Fill" fill="#0E141A"></path>
    </g>
</svg>