<?xml version="1.0" encoding="UTF-8"?>
<svg width="32px" height="32px" viewBox="0 0 32 32" version="1.1" xmlns="http://www.w3.org/2000/svg" xmlns:xlink="http://www.w3.org/1999/xlink">
    <!-- Generator: Sketch 58 (84663) - https://sketch.com -->
    <title>Actions / Toggle / microphone--off </title>
    <desc>Created with Sketch.</desc>
    <g id="Actions-/-Toggle-/-microphone--off-" stroke="none" stroke-width="1" fill="none" fill-rule="evenodd">
        <path d="M9.18,18.57 C9.06420797,18.054579 9.0038649,17.5282534 9,17 L9,14 L7,14 L7,17 C6.99624153,18.0866384 7.19286133,19.1646573 7.58,20.18 L9.18,18.57 Z M13,15 L13,7 C13,5.34314575 14.3431458,4 16,4 C17.6568542,4 19,5.34314575 19,7 L19,8.75 L21,6.75 C20.9309644,3.98857625 18.6364237,1.80596441 15.875,1.875 C13.1135763,1.94403559 10.9309644,4.23857625 11,7 L11,15 L13,15 Z M23,17 C22.9920321,19.7722973 21.3487125,22.278681 18.8094878,23.3913506 C16.2702631,24.5040203 13.3136346,24.0133001 11.27,22.14 L12.69,20.73 C14.161219,22.029477 16.2567056,22.3478824 18.0475164,21.5440648 C19.8383272,20.7402472 20.9931328,18.9629261 21,17 L21,12.42 L30,3.42 L28.59,2 L2,28.59 L3.41,30 L9.85,23.56 C11.2614916,24.8932758 13.0698683,25.7289916 15,25.94 L15,28 L11,28 L11,30 L21,30 L21,28 L17,28 L17,25.94 C21.5535893,25.4308938 24.9978251,21.5819603 25,17 L25,14 L23,14 L23,17 Z M19,17 C18.9955184,18.1571334 18.3259449,19.2085303 17.2792802,19.701958 C16.2326155,20.1953856 14.995481,20.0428653 14.1,19.31 L19,14.42 L19,17 Z" id="Fill" fill="#0E141A"></path>
    </g>
</svg>