<?xml version="1.0" encoding="UTF-8"?>
<svg width="32px" height="32px" viewBox="0 0 32 32" version="1.1" xmlns="http://www.w3.org/2000/svg" xmlns:xlink="http://www.w3.org/1999/xlink">
    <!-- Generator: Sketch 58 (84663) - https://sketch.com -->
    <title>Actions / Toggle / thumbs-down </title>
    <desc>Created with Sketch.</desc>
    <g id="Actions-/-Toggle-/-thumbs-down-" stroke="none" stroke-width="1" fill="none" fill-rule="evenodd">
        <path d="M26.76,21 C28.7592395,20.7900741 30.2098052,18.9992521 30,17 L30,11 C30,7.35 28.44,3 21,3 L2,3 L2,17 L8.46,17 L12,22.37 L13,28.71 L13,28.83 C13.1545994,29.5001474 13.7425092,29.9811644 14.43,30 L16,30 C16.2524451,30.0300013 16.5075549,30.0300013 16.76,30 C18.7592395,29.7900741 20.2098052,27.9992521 20,26 L20,21 L26,21 C26.2524451,21.0300013 26.5075549,21.0300013 26.76,21 L26.76,21 Z M8,15 L4,15 L4,5 L8,5 L8,15 Z M28,17 C28,18.44 27.44,19 26,19 L18,19 L18,26 C18,27.44 17.44,28 16,28 L14.87,28 L14.73,27 L14,21.63 L10,15.7 L10,5 L21,5 C25.78,5 28,6.91 28,11 L28,17 Z" id="Fill" fill="#0E141A"></path>
    </g>
</svg>