<?xml version="1.0" encoding="UTF-8"?>
<svg width="32px" height="32px" viewBox="0 0 32 32" version="1.1" xmlns="http://www.w3.org/2000/svg" xmlns:xlink="http://www.w3.org/1999/xlink">
    <!-- Generator: Sketch 58 (84663) - https://sketch.com -->
    <title>Actions / Toggle / view--filled </title>
    <desc>Created with Sketch.</desc>
    <g id="Actions-/-Toggle-/-view--filled-" stroke="none" stroke-width="1" fill="none" fill-rule="evenodd">
        <path d="M16,20 C18.209139,20 20,18.209139 20,16 C20,13.790861 18.209139,12 16,12 C13.790861,12 12,13.790861 12,16 C12,18.209139 13.790861,20 16,20 Z M30.94,15.66 C28.5360305,9.44170125 22.6620976,5.25052828 16,5 C9.33790239,5.25052828 3.46396955,9.44170125 1.06,15.66 C0.980567248,15.8797076 0.980567248,16.1202924 1.06,16.34 C3.46396955,22.5582988 9.33790239,26.7494717 16,27 C22.6620976,26.7494717 28.5360305,22.5582988 30.94,16.34 C31.0194328,16.1202924 31.0194328,15.8797076 30.94,15.66 Z M16,22.5 C12.4101491,22.5 9.5,19.5898509 9.5,16 C9.5,12.4101491 12.4101491,9.5 16,9.5 C19.5898509,9.5 22.5,12.4101491 22.5,16 C22.4944934,19.5875675 19.5875675,22.4944934 16,22.5 Z" id="Fill" fill="#0E141A"></path>
    </g>
</svg>